%!PS-Adobe-3.0 EPSF-3.0
%%BoundingBox: (atend)
%%LanguageLevel: 2
%%Creator: Grace-5.1.25
%%CreationDate: Tue May 23 16:03:10 2017
%%DocumentData: Clean8Bit
%%Orientation: Portrait
%%Title: fig3bnew.agr
%%For: puglisi
%%DocumentNeededResources: (atend)
%%EndComments
%%BeginProlog
/m {moveto} def
/l {lineto} def
/s {stroke} def
/n {newpath} def
/c {closepath} def
/RL {rlineto} def
/SLW {setlinewidth} def
/GS {gsave} def
/GR {grestore} def
/SC {setcolor} def
/SGRY {setgray} def
/SRGB {setrgbcolor} def
/SD {setdash} def
/SLC {setlinecap} def
/SLJ {setlinejoin} def
/SCS {setcolorspace} def
/FFSF {findfont setfont} def
/CC {concat} def
/PXL {n m 0 0 RL s} def
/Color0 {1.0000 1.0000 1.0000} def
/Color1 {0.0000 0.0000 0.0000} def
/Color2 {1.0000 0.0000 0.0000} def
/Color3 {0.0000 1.0000 0.0000} def
/Color4 {0.0000 0.0000 1.0000} def
/Color5 {1.0000 1.0000 0.0000} def
/Color6 {0.7373 0.5608 0.5608} def
/Color7 {0.8627 0.8627 0.8627} def
/Color8 {0.5804 0.0000 0.8275} def
/Color9 {0.0000 1.0000 1.0000} def
/Color10 {1.0000 0.0000 1.0000} def
/Color11 {1.0000 0.6471 0.0000} def
/Color12 {0.4471 0.1294 0.7373} def
/Color13 {0.4039 0.0275 0.2824} def
/Color14 {0.2510 0.8784 0.8157} def
/Color15 {0.0000 0.5451 0.0000} def
/Color16 {0.7529 0.7529 0.7529} def
/Color17 {0.5059 0.5059 0.5059} def
/Color18 {0.2588 0.2588 0.2588} def
/PTRN {
 /pat_bits exch def 
 <<
  /PaintType 2
  /PatternType 1 /TilingType 1
  /BBox[0 0 16 16]
  /XStep 16 /YStep 16
  /PaintProc {
   pop
   16 16 true [-1 0 0 -1 16 16] pat_bits imagemask
  }
 >>
 [0.0016 0 0 0.0016 0 0]
 makepattern
} def
/Pattern0 {<0000000000000000000000000000000000000000000000000000000000000000> PTRN} bind def
/Pattern1 {<ffffffffffffffffffffffffffffffffffffffffffffffffffffffffffffffff> PTRN} bind def
/Pattern2 {<eeeeffffbbbbffffeeeeffffbbbbffffeeeeffffbbbbffffeeeeffffbbbbffff> PTRN} bind def
/Pattern3 {<eeeebbbbeeeebbbbeeeebbbbeeeebbbbeeeebbbbeeeebbbbeeeebbbbeeeebbbb> PTRN} bind def
/Pattern4 {<5555aaaa5555aaaa5555aaaa5555aaaa5555aaaa5555aaaa5555aaaa5555aaaa> PTRN} bind def
/Pattern5 {<1111444411114444111144441111444411114444111144441111444411114444> PTRN} bind def
/Pattern6 {<1111000044440000111100004444000011110000444400001111000044440000> PTRN} bind def
/Pattern7 {<1010000000000000010100000000000010100000000000000101000000000000> PTRN} bind def
/Pattern8 {<0000000000000000000000000000000000000000000000000000000000000000> PTRN} bind def
/Pattern9 {<1e1e0f0f8787c3c3e1e1f0f078783c3c1e1e0f0f8787c3c3e1e1f0f078783c3c> PTRN} bind def
/Pattern10 {<7878f0f0e1e1c3c387870f0f1e1e3c3c7878f0f0e1e1c3c387870f0f1e1e3c3c> PTRN} bind def
/Pattern11 {<3333333333333333333333333333333333333333333333333333333333333333> PTRN} bind def
/Pattern12 {<ffffffff00000000ffffffff00000000ffffffff00000000ffffffff00000000> PTRN} bind def
/Pattern13 {<8181424224241818181824244242818181814242242418181818242442428181> PTRN} bind def
/Pattern14 {<8080404020201010080804040202010180804040202010100808040402020101> PTRN} bind def
/Pattern15 {<0101020204040808101020204040808001010202040408081010202040408080> PTRN} bind def
/Pattern16 {<2222222222222222222222222222222222222222222222222222222222222222> PTRN} bind def
/Pattern17 {<0000ffff000000000000ffff000000000000ffff000000000000ffff00000000> PTRN} bind def
/Pattern18 {<2222ffff222222222222ffff222222222222ffff222222222222ffff22222222> PTRN} bind def
/Pattern19 {<ffffffff33333333ffffffff33333333ffffffff33333333ffffffff33333333> PTRN} bind def
/Pattern20 {<0f0f0f0f0f0f0f0ff0f0f0f0f0f0f0f00f0f0f0f0f0f0f0ff0f0f0f0f0f0f0f0> PTRN} bind def
/Pattern21 {<ff00ff00ff00ff00ff00ff00ff00ff0000ff00ff00ff00ff00ff00ff00ff00ff> PTRN} bind def
/Pattern22 {<8001800180018001800180018001ffffffff8001800180018001800180018001> PTRN} bind def
/Pattern23 {<c003c003c003c003c003c003ffffffffffffffffc003c003c003c003c003c003> PTRN} bind def
/Pattern24 {<040404040404ffff404040404040ffff040404040404ffff404040404040ffff> PTRN} bind def
/Pattern25 {<180018001800180018001800ffffffff001800180018001800180018ffffffff> PTRN} bind def
/Pattern26 {<1111b8b87c7c3a3a1111a3a3c7c78b8b1111b8b87c7c3a3a1111a3a3c7c78b8b> PTRN} bind def
/Pattern27 {<101010102828c7c70101010182827c7c101010102828c7c70101010182827c7c> PTRN} bind def
/Pattern28 {<1c1c121211112121c1c12121111112121c1c121211112121c1c1212111111212> PTRN} bind def
/Pattern29 {<3e3e414180808080e3e31414080808083e3e414180808080e3e3141408080808> PTRN} bind def
/Pattern30 {<4848888884848383848488884848383848488888848483838484888848483838> PTRN} bind def
/Pattern31 {<03030404080808080c0c12122121c0c003030404080808080c0c12122121c0c0> PTRN} bind def
/ellipsedict 8 dict def
ellipsedict /mtrx matrix put
/EARC {
 ellipsedict begin
  /endangle exch def
  /startangle exch def
  /yrad exch def
  /xrad exch def
  /y exch def
  /x exch def
  /savematrix mtrx currentmatrix def
  x y translate
  xrad yrad scale
  0 0 1 startangle endangle arc
  savematrix setmatrix
 end
} def
/TL {
  /kcomp exch def
  /linewidth exch def
  /offset exch def
  GS
  0 offset rmoveto
  linewidth SLW
  dup stringwidth exch kcomp add exch RL s
  GR
} def
/KINIT
{
 /kvector exch def
 /kid 0 def
} def
/KPROC
{
 pop pop
 kvector kid get
 0 rmoveto
 /kid 1 kid add def
} def
/DefEncoding [
 /.notdef
 /.notdef
 /.notdef
 /.notdef
 /.notdef
 /.notdef
 /.notdef
 /.notdef
 /.notdef
 /.notdef
 /.notdef
 /.notdef
 /.notdef
 /.notdef
 /.notdef
 /.notdef
 /.notdef
 /.notdef
 /.notdef
 /.notdef
 /.notdef
 /.notdef
 /.notdef
 /.notdef
 /.notdef
 /.notdef
 /.notdef
 /.notdef
 /.notdef
 /.notdef
 /.notdef
 /.notdef
 /space
 /exclam
 /quotedbl
 /numbersign
 /dollar
 /percent
 /ampersand
 /quoteright
 /parenleft
 /parenright
 /asterisk
 /plus
 /comma
 /hyphen
 /period
 /slash
 /zero
 /one
 /two
 /three
 /four
 /five
 /six
 /seven
 /eight
 /nine
 /colon
 /semicolon
 /less
 /equal
 /greater
 /question
 /at
 /A
 /B
 /C
 /D
 /E
 /F
 /G
 /H
 /I
 /J
 /K
 /L
 /M
 /N
 /O
 /P
 /Q
 /R
 /S
 /T
 /U
 /V
 /W
 /X
 /Y
 /Z
 /bracketleft
 /backslash
 /bracketright
 /asciicircum
 /underscore
 /grave
 /a
 /b
 /c
 /d
 /e
 /f
 /g
 /h
 /i
 /j
 /k
 /l
 /m
 /n
 /o
 /p
 /q
 /r
 /s
 /t
 /u
 /v
 /w
 /x
 /y
 /z
 /braceleft
 /bar
 /braceright
 /asciitilde
 /.notdef
 /.notdef
 /.notdef
 /.notdef
 /.notdef
 /.notdef
 /.notdef
 /.notdef
 /.notdef
 /.notdef
 /.notdef
 /.notdef
 /.notdef
 /.notdef
 /.notdef
 /.notdef
 /.notdef
 /.notdef
 /.notdef
 /.notdef
 /.notdef
 /.notdef
 /.notdef
 /.notdef
 /.notdef
 /.notdef
 /.notdef
 /.notdef
 /.notdef
 /.notdef
 /.notdef
 /.notdef
 /.notdef
 /space
 /exclamdown
 /cent
 /sterling
 /currency
 /yen
 /brokenbar
 /section
 /dieresis
 /copyright
 /ordfeminine
 /guillemotleft
 /logicalnot
 /hyphen
 /registered
 /macron
 /degree
 /plusminus
 /twosuperior
 /threesuperior
 /acute
 /mu
 /paragraph
 /periodcentered
 /cedilla
 /onesuperior
 /ordmasculine
 /guillemotright
 /onequarter
 /onehalf
 /threequarters
 /questiondown
 /Agrave
 /Aacute
 /Acircumflex
 /Atilde
 /Adieresis
 /Aring
 /AE
 /Ccedilla
 /Egrave
 /Eacute
 /Ecircumflex
 /Edieresis
 /Igrave
 /Iacute
 /Icircumflex
 /Idieresis
 /Eth
 /Ntilde
 /Ograve
 /Oacute
 /Ocircumflex
 /Otilde
 /Odieresis
 /multiply
 /Oslash
 /Ugrave
 /Uacute
 /Ucircumflex
 /Udieresis
 /Yacute
 /Thorn
 /germandbls
 /agrave
 /aacute
 /acircumflex
 /atilde
 /adieresis
 /aring
 /ae
 /ccedilla
 /egrave
 /eacute
 /ecircumflex
 /edieresis
 /igrave
 /iacute
 /icircumflex
 /idieresis
 /eth
 /ntilde
 /ograve
 /oacute
 /ocircumflex
 /otilde
 /odieresis
 /divide
 /oslash
 /ugrave
 /uacute
 /ucircumflex
 /udieresis
 /yacute
 /thorn
 /ydieresis
] def
%%EndProlog
%%BeginSetup
%%EndSetup
612.00 612.00 scale
n
0.0000 0.0000 m
0.0000 1.0000 l
1.2941 1.0000 l
1.2941 0.0000 l
c
[/DeviceRGB] SCS
Color0 SC
fill
n
0.1761 0.2515 0.0100 0.0100 0 360 EARC c
[/DeviceRGB] SCS
Color1 SC
fill
[] 0 SD
0.0015 SLW
n 0.1761 0.2515 0.0100 0.0100 0 360 EARC s
n
0.2109 0.2770 0.0100 0.0100 0 360 EARC c
fill
n 0.2109 0.2770 0.0100 0.0100 0 360 EARC s
n
0.2457 0.2893 0.0100 0.0100 0 360 EARC c
fill
n 0.2457 0.2893 0.0100 0.0100 0 360 EARC s
n
0.2804 0.3011 0.0100 0.0100 0 360 EARC c
fill
n 0.2804 0.3011 0.0100 0.0100 0 360 EARC s
n
0.3674 0.3034 0.0100 0.0100 0 360 EARC c
fill
n 0.3674 0.3034 0.0100 0.0100 0 360 EARC s
n
0.4543 0.2999 0.0100 0.0100 0 360 EARC c
fill
n 0.4543 0.2999 0.0100 0.0100 0 360 EARC s
n
0.5413 0.2939 0.0100 0.0100 0 360 EARC c
fill
n 0.5413 0.2939 0.0100 0.0100 0 360 EARC s
n
0.6283 0.2894 0.0100 0.0100 0 360 EARC c
fill
n 0.6283 0.2894 0.0100 0.0100 0 360 EARC s
n
0.7152 0.2804 0.0100 0.0100 0 360 EARC c
fill
n 0.7152 0.2804 0.0100 0.0100 0 360 EARC s
n
0.8022 0.2751 0.0100 0.0100 0 360 EARC c
fill
n 0.8022 0.2751 0.0100 0.0100 0 360 EARC s
n
0.9761 0.2624 0.0100 0.0100 0 360 EARC c
fill
n 0.9761 0.2624 0.0100 0.0100 0 360 EARC s
n
0.1676 0.2601 m
0.1676 0.2771 l
0.1846 0.2771 l
0.1846 0.2601 l
c
[/DeviceRGB] SCS
Color2 SC
fill
0 SLC
0 SLJ
n
0.1676 0.2601 m
0.1676 0.2771 l
0.1846 0.2771 l
0.1846 0.2601 l
0.1676 0.2601 l
c
s
n
0.2024 0.2882 m
0.2024 0.3052 l
0.2194 0.3052 l
0.2194 0.2882 l
c
fill
n
0.2024 0.2882 m
0.2024 0.3052 l
0.2194 0.3052 l
0.2194 0.2882 l
0.2024 0.2882 l
c
s
n
0.2372 0.3002 m
0.2372 0.3172 l
0.2542 0.3172 l
0.2542 0.3002 l
c
fill
n
0.2372 0.3002 m
0.2372 0.3172 l
0.2542 0.3172 l
0.2542 0.3002 l
0.2372 0.3002 l
c
s
n
0.2719 0.3096 m
0.2719 0.3266 l
0.2889 0.3266 l
0.2889 0.3096 l
c
fill
n
0.2719 0.3096 m
0.2719 0.3266 l
0.2889 0.3266 l
0.2889 0.3096 l
0.2719 0.3096 l
c
s
n
0.3589 0.3218 m
0.3589 0.3388 l
0.3759 0.3388 l
0.3759 0.3218 l
c
fill
n
0.3589 0.3218 m
0.3589 0.3388 l
0.3759 0.3388 l
0.3759 0.3218 l
0.3589 0.3218 l
c
s
n
0.4458 0.3236 m
0.4458 0.3406 l
0.4628 0.3406 l
0.4628 0.3236 l
c
fill
n
0.4458 0.3236 m
0.4458 0.3406 l
0.4628 0.3406 l
0.4628 0.3236 l
0.4458 0.3236 l
c
s
n
0.5328 0.3232 m
0.5328 0.3402 l
0.5498 0.3402 l
0.5498 0.3232 l
c
fill
n
0.5328 0.3232 m
0.5328 0.3402 l
0.5498 0.3402 l
0.5498 0.3232 l
0.5328 0.3232 l
c
s
n
0.6198 0.3213 m
0.6198 0.3383 l
0.6368 0.3383 l
0.6368 0.3213 l
c
fill
n
0.6198 0.3213 m
0.6198 0.3383 l
0.6368 0.3383 l
0.6368 0.3213 l
0.6198 0.3213 l
c
s
n
0.7067 0.3195 m
0.7067 0.3365 l
0.7237 0.3365 l
0.7237 0.3195 l
c
fill
n
0.7067 0.3195 m
0.7067 0.3365 l
0.7237 0.3365 l
0.7237 0.3195 l
0.7067 0.3195 l
c
s
n
0.7937 0.3174 m
0.7937 0.3344 l
0.8107 0.3344 l
0.8107 0.3174 l
c
fill
n
0.7937 0.3174 m
0.7937 0.3344 l
0.8107 0.3344 l
0.8107 0.3174 l
0.7937 0.3174 l
c
s
n
0.9676 0.3118 m
0.9676 0.3288 l
0.9846 0.3288 l
0.9846 0.3118 l
c
fill
n
0.9676 0.3118 m
0.9676 0.3288 l
0.9846 0.3288 l
0.9846 0.3118 l
0.9676 0.3118 l
c
s
[/DeviceRGB] SCS
Color10 SC
n
0.1661 0.3255 m
0.1861 0.3255 l
s
n
0.1761 0.3155 m
0.1761 0.3355 l
s
n
0.2009 0.3541 m
0.2209 0.3541 l
s
n
0.2109 0.3441 m
0.2109 0.3641 l
s
n
0.2357 0.3728 m
0.2557 0.3728 l
s
n
0.2457 0.3628 m
0.2457 0.3828 l
s
n
0.2704 0.3847 m
0.2904 0.3847 l
s
n
0.2804 0.3747 m
0.2804 0.3947 l
s
n
0.3574 0.3987 m
0.3774 0.3987 l
s
n
0.3674 0.3887 m
0.3674 0.4087 l
s
n
0.4443 0.4054 m
0.4643 0.4054 l
s
n
0.4543 0.3954 m
0.4543 0.4154 l
s
n
0.5313 0.4110 m
0.5513 0.4110 l
s
n
0.5413 0.4010 m
0.5413 0.4210 l
s
n
0.6183 0.4144 m
0.6383 0.4144 l
s
n
0.6283 0.4044 m
0.6283 0.4244 l
s
n
0.7052 0.4182 m
0.7252 0.4182 l
s
n
0.7152 0.4082 m
0.7152 0.4282 l
s
n
0.7922 0.4192 m
0.8122 0.4192 l
s
n
0.8022 0.4092 m
0.8022 0.4292 l
s
n
0.9661 0.4233 m
0.9861 0.4233 l
s
n
0.9761 0.4133 m
0.9761 0.4333 l
s
n
0.1761 0.4965 m
0.1661 0.4865 l
0.1761 0.4765 l
0.1861 0.4865 l
c
[/DeviceRGB] SCS
Color3 SC
fill
n
0.1761 0.4965 m
0.1661 0.4865 l
0.1761 0.4765 l
0.1861 0.4865 l
0.1761 0.4965 l
c
s
n
0.2109 0.5340 m
0.2009 0.5240 l
0.2109 0.5140 l
0.2209 0.5240 l
c
fill
n
0.2109 0.5340 m
0.2009 0.5240 l
0.2109 0.5140 l
0.2209 0.5240 l
0.2109 0.5340 l
c
s
n
0.2457 0.5568 m
0.2357 0.5468 l
0.2457 0.5368 l
0.2557 0.5468 l
c
fill
n
0.2457 0.5568 m
0.2357 0.5468 l
0.2457 0.5368 l
0.2557 0.5468 l
0.2457 0.5568 l
c
s
n
0.2804 0.5729 m
0.2704 0.5629 l
0.2804 0.5529 l
0.2904 0.5629 l
c
fill
n
0.2804 0.5729 m
0.2704 0.5629 l
0.2804 0.5529 l
0.2904 0.5629 l
0.2804 0.5729 l
c
s
n
0.3674 0.5982 m
0.3574 0.5882 l
0.3674 0.5782 l
0.3774 0.5882 l
c
fill
n
0.3674 0.5982 m
0.3574 0.5882 l
0.3674 0.5782 l
0.3774 0.5882 l
0.3674 0.5982 l
c
s
n
0.4543 0.6125 m
0.4443 0.6025 l
0.4543 0.5925 l
0.4643 0.6025 l
c
fill
n
0.4543 0.6125 m
0.4443 0.6025 l
0.4543 0.5925 l
0.4643 0.6025 l
0.4543 0.6125 l
c
s
n
0.5413 0.6223 m
0.5313 0.6123 l
0.5413 0.6023 l
0.5513 0.6123 l
c
fill
n
0.5413 0.6223 m
0.5313 0.6123 l
0.5413 0.6023 l
0.5513 0.6123 l
0.5413 0.6223 l
c
s
n
0.6283 0.6298 m
0.6183 0.6198 l
0.6283 0.6098 l
0.6383 0.6198 l
c
fill
n
0.6283 0.6298 m
0.6183 0.6198 l
0.6283 0.6098 l
0.6383 0.6198 l
0.6283 0.6298 l
c
s
n
0.7152 0.6346 m
0.7052 0.6246 l
0.7152 0.6146 l
0.7252 0.6246 l
c
fill
n
0.7152 0.6346 m
0.7052 0.6246 l
0.7152 0.6146 l
0.7252 0.6246 l
0.7152 0.6346 l
c
s
n
0.8022 0.6394 m
0.7922 0.6294 l
0.8022 0.6194 l
0.8122 0.6294 l
c
fill
n
0.8022 0.6394 m
0.7922 0.6294 l
0.8022 0.6194 l
0.8122 0.6294 l
0.8022 0.6394 l
c
s
n
0.9761 0.6447 m
0.9661 0.6347 l
0.9761 0.6247 l
0.9861 0.6347 l
c
fill
n
0.9761 0.6447 m
0.9661 0.6347 l
0.9761 0.6247 l
0.9861 0.6347 l
0.9761 0.6447 l
c
s
n
0.1661 0.4929 m
0.1761 0.4755 l
0.1861 0.4929 l
c
[/DeviceRGB] SCS
Color6 SC
fill
n
0.1661 0.4929 m
0.1761 0.4755 l
0.1861 0.4929 l
0.1661 0.4929 l
c
s
n
0.2009 0.5389 m
0.2109 0.5216 l
0.2209 0.5389 l
c
fill
n
0.2009 0.5389 m
0.2109 0.5216 l
0.2209 0.5389 l
0.2009 0.5389 l
c
s
n
0.2357 0.5711 m
0.2457 0.5538 l
0.2557 0.5711 l
c
fill
n
0.2357 0.5711 m
0.2457 0.5538 l
0.2557 0.5711 l
0.2357 0.5711 l
c
s
n
0.2704 0.5962 m
0.2804 0.5789 l
0.2904 0.5962 l
c
fill
n
0.2704 0.5962 m
0.2804 0.5789 l
0.2904 0.5962 l
0.2704 0.5962 l
c
s
n
0.3574 0.6421 m
0.3674 0.6248 l
0.3774 0.6421 l
c
fill
n
0.3574 0.6421 m
0.3674 0.6248 l
0.3774 0.6421 l
0.3574 0.6421 l
c
s
n
0.4443 0.6745 m
0.4543 0.6572 l
0.4643 0.6745 l
c
fill
n
0.4443 0.6745 m
0.4543 0.6572 l
0.4643 0.6745 l
0.4443 0.6745 l
c
s
n
0.5313 0.6996 m
0.5413 0.6823 l
0.5513 0.6996 l
c
fill
n
0.5313 0.6996 m
0.5413 0.6823 l
0.5513 0.6996 l
0.5313 0.6996 l
c
s
n
0.6183 0.7200 m
0.6283 0.7027 l
0.6383 0.7200 l
c
fill
n
0.6183 0.7200 m
0.6283 0.7027 l
0.6383 0.7200 l
0.6183 0.7200 l
c
s
n
0.7052 0.7372 m
0.7152 0.7199 l
0.7252 0.7372 l
c
fill
n
0.7052 0.7372 m
0.7152 0.7199 l
0.7252 0.7372 l
0.7052 0.7372 l
c
s
n
0.7922 0.7524 m
0.8022 0.7351 l
0.8122 0.7524 l
c
fill
n
0.7922 0.7524 m
0.8022 0.7351 l
0.8122 0.7524 l
0.7922 0.7524 l
c
s
n
0.9661 0.7776 m
0.9761 0.7603 l
0.9861 0.7776 l
c
fill
n
0.9661 0.7776 m
0.9761 0.7603 l
0.9861 0.7776 l
0.9661 0.7776 l
c
s
n
0.1703 0.3480 m
0.1703 0.3280 l
0.1876 0.3380 l
c
[/DeviceRGB] SCS
Color11 SC
fill
n
0.1703 0.3480 m
0.1703 0.3280 l
0.1876 0.3380 l
0.1703 0.3480 l
c
s
n
0.2051 0.3514 m
0.2051 0.3314 l
0.2224 0.3414 l
c
fill
n
0.2051 0.3514 m
0.2051 0.3314 l
0.2224 0.3414 l
0.2051 0.3514 l
c
s
n
0.2399 0.3508 m
0.2399 0.3308 l
0.2572 0.3408 l
c
fill
n
0.2399 0.3508 m
0.2399 0.3308 l
0.2572 0.3408 l
0.2399 0.3508 l
c
s
n
0.2747 0.3497 m
0.2747 0.3297 l
0.2920 0.3397 l
c
fill
n
0.2747 0.3497 m
0.2747 0.3297 l
0.2920 0.3397 l
0.2747 0.3497 l
c
s
n
0.3616 0.3477 m
0.3616 0.3277 l
0.3789 0.3377 l
c
fill
n
0.3616 0.3477 m
0.3616 0.3277 l
0.3789 0.3377 l
0.3616 0.3477 l
c
s
n
0.4486 0.3454 m
0.4486 0.3254 l
0.4659 0.3354 l
c
fill
n
0.4486 0.3454 m
0.4486 0.3254 l
0.4659 0.3354 l
0.4486 0.3454 l
c
s
n
0.5355 0.3429 m
0.5355 0.3229 l
0.5529 0.3329 l
c
fill
n
0.5355 0.3429 m
0.5355 0.3229 l
0.5529 0.3329 l
0.5355 0.3429 l
c
s
n
0.6225 0.3430 m
0.6225 0.3230 l
0.6398 0.3330 l
c
fill
n
0.6225 0.3430 m
0.6225 0.3230 l
0.6398 0.3330 l
0.6225 0.3430 l
c
s
n
0.7094 0.3384 m
0.7094 0.3184 l
0.7268 0.3284 l
c
fill
n
0.7094 0.3384 m
0.7094 0.3184 l
0.7268 0.3284 l
0.7094 0.3384 l
c
s
n
0.7964 0.3357 m
0.7964 0.3157 l
0.8137 0.3257 l
c
fill
n
0.7964 0.3357 m
0.7964 0.3157 l
0.8137 0.3257 l
0.7964 0.3357 l
c
s
n
0.9703 0.3306 m
0.9703 0.3106 l
0.9876 0.3206 l
c
fill
n
0.9703 0.3306 m
0.9703 0.3106 l
0.9876 0.3206 l
0.9703 0.3306 l
c
s
[/DeviceRGB] SCS
Color1 SC
[0.0030 0.0090 ] 0 SD
0.0030 SLW
n
0.1499 0.2057 m
0.1500 0.2101 l
0.1935 0.2623 l
0.2370 0.2833 l
0.2804 0.2925 l
0.3674 0.2964 l
0.4543 0.2925 l
0.5413 0.2859 l
0.6283 0.2785 l
0.8022 0.2635 l
0.9761 0.2494 l
1.1500 0.2364 l
1.1501 0.2364 l
s
[/DeviceRGB] SCS
Color10 SC
n
0.1499 0.2856 m
0.1500 0.2863 l
0.1935 0.3424 l
0.2370 0.3670 l
0.2804 0.3797 l
0.3674 0.3901 l
0.4543 0.3924 l
0.5413 0.3916 l
0.6283 0.3896 l
0.8022 0.3843 l
0.9761 0.3787 l
1.1500 0.3730 l
1.1501 0.3730 l
s
[/DeviceRGB] SCS
Color3 SC
n
0.1499 0.4727 m
0.1500 0.4765 l
0.1935 0.5465 l
0.2370 0.5832 l
0.2804 0.6061 l
0.3674 0.6322 l
0.4543 0.6450 l
0.5413 0.6512 l
0.6283 0.6537 l
0.8022 0.6528 l
0.9761 0.6480 l
1.1500 0.6413 l
1.1501 0.6413 l
s
[/DeviceRGB] SCS
Color6 SC
n
0.1499 0.4301 m
0.1500 0.4345 l
0.1935 0.5126 l
0.2370 0.5582 l
0.2804 0.5906 l
0.3674 0.6363 l
0.4543 0.6687 l
0.5413 0.6938 l
0.6283 0.7144 l
0.8022 0.7467 l
0.9761 0.7718 l
1.1500 0.7923 l
1.1501 0.7923 l
s
[/DeviceRGB] SCS
Color11 SC
n
0.1499 0.3191 m
0.1500 0.3233 l
0.1935 0.3315 l
0.2370 0.3301 l
0.2804 0.3277 l
0.3674 0.3226 l
0.4543 0.3173 l
0.5413 0.3122 l
0.6283 0.3072 l
0.8022 0.2976 l
0.9761 0.2885 l
1.1500 0.2798 l
1.1501 0.2798 l
s
[/DeviceRGB] SCS
Color2 SC
n
0.1499 0.2127 m
0.1500 0.2171 l
0.1935 0.2712 l
0.2370 0.2940 l
0.2804 0.3051 l
0.3674 0.3128 l
0.4543 0.3126 l
0.5413 0.3096 l
0.6283 0.3056 l
0.8022 0.2967 l
0.9761 0.2878 l
1.1500 0.2793 l
1.1501 0.2793 l
s
[/DeviceRGB] SCS
Color1 SC
[] 0 SD
0.0015 SLW
n
0.1500 0.1500 m
1.1500 0.1500 l
s
n
0.1500 0.8500 m
1.1500 0.8500 l
s
n
0.2804 0.1500 m
0.2804 0.1700 l
s
n
0.2804 0.8500 m
0.2804 0.8300 l
s
n
0.4543 0.1500 m
0.4543 0.1700 l
s
n
0.4543 0.8500 m
0.4543 0.8300 l
s
n
0.6283 0.1500 m
0.6283 0.1700 l
s
n
0.6283 0.8500 m
0.6283 0.8300 l
s
n
0.8022 0.1500 m
0.8022 0.1700 l
s
n
0.8022 0.8500 m
0.8022 0.8300 l
s
n
0.9761 0.1500 m
0.9761 0.1700 l
s
n
0.9761 0.8500 m
0.9761 0.8300 l
s
n
1.1500 0.1500 m
1.1500 0.1700 l
s
n
1.1500 0.8500 m
1.1500 0.8300 l
s
/Times-Roman findfont
dup length dict begin
 {1 index /FID ne {def} {pop pop} ifelse} forall
 /Encoding DefEncoding def
 currentdict
end
/Font41 exch definefont pop
/Font41 FFSF
0.2604 0.1165 m
GS
[0.0350 0.0000 0.0000 0.0350 0 0] CC
(0.1) show
GR
/Font41 FFSF
0.4330 0.1165 m
GS
[0.0350 0.0000 0.0000 0.0350 0 0] CC
(0.2) show
GR
/Font41 FFSF
0.6075 0.1165 m
GS
[0.0350 0.0000 0.0000 0.0350 0 0] CC
(0.3) show
GR
/Font41 FFSF
0.7808 0.1165 m
GS
[0.0350 0.0000 0.0000 0.0350 0 0] CC
(0.4) show
GR
/Font41 FFSF
0.9553 0.1161 m
GS
[0.0350 0.0000 0.0000 0.0350 0 0] CC
(0.5) show
GR
/Font41 FFSF
1.1286 0.1161 m
GS
[0.0350 0.0000 0.0000 0.0350 0 0] CC
(0.6) show
GR
/Font41 FFSF
0.6384 0.0802 m
GS
[0.0560 0.0000 0.0000 0.0560 0 0] CC
(c) show
GR
n
0.1500 0.1500 m
0.1500 0.8500 l
s
n
1.1500 0.1500 m
1.1500 0.8500 l
s
n
0.1500 0.1500 m
0.1600 0.1500 l
s
n
1.1500 0.1500 m
1.1400 0.1500 l
s
n
0.1500 0.1957 m
0.1600 0.1957 l
s
n
1.1500 0.1957 m
1.1400 0.1957 l
s
n
0.1500 0.2281 m
0.1600 0.2281 l
s
n
1.1500 0.2281 m
1.1400 0.2281 l
s
n
0.1500 0.2532 m
0.1600 0.2532 l
s
n
1.1500 0.2532 m
1.1400 0.2532 l
s
n
0.1500 0.2737 m
0.1600 0.2737 l
s
n
1.1500 0.2737 m
1.1400 0.2737 l
s
n
0.1500 0.2911 m
0.1600 0.2911 l
s
n
1.1500 0.2911 m
1.1400 0.2911 l
s
n
0.1500 0.3061 m
0.1600 0.3061 l
s
n
1.1500 0.3061 m
1.1400 0.3061 l
s
n
0.1500 0.3194 m
0.1600 0.3194 l
s
n
1.1500 0.3194 m
1.1400 0.3194 l
s
n
0.1500 0.3313 m
0.1600 0.3313 l
s
n
1.1500 0.3313 m
1.1400 0.3313 l
s
n
0.1500 0.4094 m
0.1600 0.4094 l
s
n
1.1500 0.4094 m
1.1400 0.4094 l
s
n
0.1500 0.4550 m
0.1600 0.4550 l
s
n
1.1500 0.4550 m
1.1400 0.4550 l
s
n
0.1500 0.4874 m
0.1600 0.4874 l
s
n
1.1500 0.4874 m
1.1400 0.4874 l
s
n
0.1500 0.5126 m
0.1600 0.5126 l
s
n
1.1500 0.5126 m
1.1400 0.5126 l
s
n
0.1500 0.5331 m
0.1600 0.5331 l
s
n
1.1500 0.5331 m
1.1400 0.5331 l
s
n
0.1500 0.5505 m
0.1600 0.5505 l
s
n
1.1500 0.5505 m
1.1400 0.5505 l
s
n
0.1500 0.5655 m
0.1600 0.5655 l
s
n
1.1500 0.5655 m
1.1400 0.5655 l
s
n
0.1500 0.5788 m
0.1600 0.5788 l
s
n
1.1500 0.5788 m
1.1400 0.5788 l
s
n
0.1500 0.5906 m
0.1600 0.5906 l
s
n
1.1500 0.5906 m
1.1400 0.5906 l
s
n
0.1500 0.6687 m
0.1600 0.6687 l
s
n
1.1500 0.6687 m
1.1400 0.6687 l
s
n
0.1500 0.7144 m
0.1600 0.7144 l
s
n
1.1500 0.7144 m
1.1400 0.7144 l
s
n
0.1500 0.7468 m
0.1600 0.7468 l
s
n
1.1500 0.7468 m
1.1400 0.7468 l
s
n
0.1500 0.7719 m
0.1600 0.7719 l
s
n
1.1500 0.7719 m
1.1400 0.7719 l
s
n
0.1500 0.7925 m
0.1600 0.7925 l
s
n
1.1500 0.7925 m
1.1400 0.7925 l
s
n
0.1500 0.8098 m
0.1600 0.8098 l
s
n
1.1500 0.8098 m
1.1400 0.8098 l
s
n
0.1500 0.8249 m
0.1600 0.8249 l
s
n
1.1500 0.8249 m
1.1400 0.8249 l
s
n
0.1500 0.8381 m
0.1600 0.8381 l
s
n
1.1500 0.8381 m
1.1400 0.8381 l
s
n
0.1500 0.8500 m
0.1600 0.8500 l
s
n
1.1500 0.8500 m
1.1400 0.8500 l
s
n
0.1500 0.3313 m
0.1700 0.3313 l
s
n
1.1500 0.3313 m
1.1300 0.3313 l
s
n
0.1500 0.5906 m
0.1700 0.5906 l
s
n
1.1500 0.5906 m
1.1300 0.5906 l
s
n
0.1500 0.8500 m
0.1700 0.8500 l
s
n
1.1500 0.8500 m
1.1300 0.8500 l
s
/Font41 FFSF
0.0851 0.3125 m
GS
[0.0350 0.0000 0.0000 0.0350 0 0] CC
(10) show
GR
/Font41 FFSF
0.1200 0.3335 m
GS
[0.0247 0.0000 0.0000 0.0247 0 0] CC
(-2) show
GR
/Font41 FFSF
0.0871 0.5719 m
GS
[0.0350 0.0000 0.0000 0.0350 0 0] CC
(10) show
GR
/Font41 FFSF
0.1220 0.5929 m
GS
[0.0247 0.0000 0.0000 0.0247 0 0] CC
(-1) show
GR
/Font41 FFSF
0.0953 0.8313 m
GS
[0.0350 0.0000 0.0000 0.0350 0 0] CC
(10) show
GR
/Font41 FFSF
0.1302 0.8523 m
GS
[0.0247 0.0000 0.0000 0.0247 0 0] CC
(1) show
GR
/Font41 FFSF
0.0747 0.4537 m
GS
[0.0000 0.0560 -0.0560 0.0000 0 0] CC
(<F>) show
GR
n
0.1500 0.1500 m
0.1500 0.8500 l
1.1500 0.8500 l
1.1500 0.1500 l
0.1500 0.1500 l
c
s
n
0.0100 0.9900 m
0.0100 0.6706 l
0.2904 0.6706 l
0.2904 0.9900 l
c
[/DeviceRGB] SCS
Color0 SC
fill
[/DeviceRGB] SCS
Color1 SC
n
0.0100 0.9900 m
0.0100 0.6706 l
0.2904 0.6706 l
0.2904 0.9900 l
0.0100 0.9900 l
c
s
/Symbol findfont
/Font37 exch definefont pop
/Font37 FFSF
0.0800 0.9478 m
GS
[0.0420 0.0000 0.0000 0.0420 0 0] CC
(z=2  x=1) show
GR
n
0.0400 0.9592 0.0100 0.0100 0 360 EARC c
fill
n 0.0400 0.9592 0.0100 0.0100 0 360 EARC s
/Font37 FFSF
0.0800 0.8963 m
GS
[0.0420 0.0000 0.0000 0.0420 0 0] CC
(z=2  x=0.5) show
GR
n
0.0315 0.8991 m
0.0315 0.9161 l
0.0485 0.9161 l
0.0485 0.8991 l
c
[/DeviceRGB] SCS
Color2 SC
fill
n
0.0315 0.8991 m
0.0315 0.9161 l
0.0485 0.9161 l
0.0485 0.8991 l
0.0315 0.8991 l
c
s
/Font37 FFSF
[/DeviceRGB] SCS
Color1 SC
0.0800 0.8447 m
GS
[0.0420 0.0000 0.0000 0.0420 0 0] CC
(z=2  x=0.2) show
GR
[/DeviceRGB] SCS
Color10 SC
n
0.0300 0.8561 m
0.0500 0.8561 l
s
n
0.0400 0.8461 m
0.0400 0.8661 l
s
/Font37 FFSF
[/DeviceRGB] SCS
Color1 SC
0.0800 0.7931 m
GS
[0.0420 0.0000 0.0000 0.0420 0 0] CC
(z=2  x=0.1) show
GR
n
0.0400 0.8145 m
0.0300 0.8045 l
0.0400 0.7945 l
0.0500 0.8045 l
c
[/DeviceRGB] SCS
Color3 SC
fill
n
0.0400 0.8145 m
0.0300 0.8045 l
0.0400 0.7945 l
0.0500 0.8045 l
0.0400 0.8145 l
c
s
/Font37 FFSF
[/DeviceRGB] SCS
Color1 SC
0.0800 0.7416 m
GS
[0.0420 0.0000 0.0000 0.0420 0 0] CC
(z=2  x=0.05) show
GR
n
0.0400 0.7645 m
0.0300 0.7472 l
0.0500 0.7472 l
c
[/DeviceRGB] SCS
Color4 SC
fill
n
0.0400 0.7645 m
0.0300 0.7472 l
0.0500 0.7472 l
0.0400 0.7645 l
c
s
/Font37 FFSF
[/DeviceRGB] SCS
Color1 SC
0.0800 0.6900 m
GS
[0.0420 0.0000 0.0000 0.0420 0 0] CC
(z=2  x=0.01) show
GR
n
0.0285 0.7014 m
0.0458 0.6914 l
0.0458 0.7114 l
c
[/DeviceRGB] SCS
Color8 SC
fill
n
0.0285 0.7014 m
0.0458 0.6914 l
0.0458 0.7114 l
0.0285 0.7014 l
c
s
/Font41 FFSF
[/DeviceRGB] SCS
Color1 SC
0.5449 0.9104 m
GS
[0.0420 0.0000 0.0000 0.0420 0 0] CC
(Active noise) show
GR
/Font41 FFSF
1.0772 0.7831 m
GS
[0.0490 0.0000 0.0000 0.0490 0 0] CC
(B) show
GR
%%Trailer
%%BoundingBox: 4 47 718 608
%%DocumentNeededResources: font Symbol
%%+ font Times-Roman
%%EOF
