%!PS-Adobe-3.0 EPSF-3.0
%%BoundingBox: (atend)
%%LanguageLevel: 2
%%Creator: Grace-5.1.25
%%CreationDate: Mon May 29 16:14:10 2017
%%DocumentData: Clean8Bit
%%Orientation: Portrait
%%Title: max.agr
%%For: puglisi
%%DocumentNeededResources: (atend)
%%EndComments
%%BeginProlog
/m {moveto} def
/l {lineto} def
/s {stroke} def
/n {newpath} def
/c {closepath} def
/RL {rlineto} def
/SLW {setlinewidth} def
/GS {gsave} def
/GR {grestore} def
/SC {setcolor} def
/SGRY {setgray} def
/SRGB {setrgbcolor} def
/SD {setdash} def
/SLC {setlinecap} def
/SLJ {setlinejoin} def
/SCS {setcolorspace} def
/FFSF {findfont setfont} def
/CC {concat} def
/PXL {n m 0 0 RL s} def
/Color0 {1.0000 1.0000 1.0000} def
/Color1 {0.0000 0.0000 0.0000} def
/Color2 {1.0000 0.0000 0.0000} def
/Color3 {0.0000 1.0000 0.0000} def
/Color4 {0.0000 0.0000 1.0000} def
/Color5 {1.0000 1.0000 0.0000} def
/Color6 {0.7373 0.5608 0.5608} def
/Color7 {0.8627 0.8627 0.8627} def
/Color8 {0.5804 0.0000 0.8275} def
/Color9 {0.0000 1.0000 1.0000} def
/Color10 {1.0000 0.0000 1.0000} def
/Color11 {1.0000 0.6471 0.0000} def
/Color12 {0.4471 0.1294 0.7373} def
/Color13 {0.4039 0.0275 0.2824} def
/Color14 {0.2510 0.8784 0.8157} def
/Color15 {0.0000 0.5451 0.0000} def
/Color16 {0.7529 0.7529 0.7529} def
/Color17 {0.5059 0.5059 0.5059} def
/Color18 {0.2588 0.2588 0.2588} def
/PTRN {
 /pat_bits exch def 
 <<
  /PaintType 2
  /PatternType 1 /TilingType 1
  /BBox[0 0 16 16]
  /XStep 16 /YStep 16
  /PaintProc {
   pop
   16 16 true [-1 0 0 -1 16 16] pat_bits imagemask
  }
 >>
 [0.0016 0 0 0.0016 0 0]
 makepattern
} def
/Pattern0 {<0000000000000000000000000000000000000000000000000000000000000000> PTRN} bind def
/Pattern1 {<ffffffffffffffffffffffffffffffffffffffffffffffffffffffffffffffff> PTRN} bind def
/Pattern2 {<eeeeffffbbbbffffeeeeffffbbbbffffeeeeffffbbbbffffeeeeffffbbbbffff> PTRN} bind def
/Pattern3 {<eeeebbbbeeeebbbbeeeebbbbeeeebbbbeeeebbbbeeeebbbbeeeebbbbeeeebbbb> PTRN} bind def
/Pattern4 {<5555aaaa5555aaaa5555aaaa5555aaaa5555aaaa5555aaaa5555aaaa5555aaaa> PTRN} bind def
/Pattern5 {<1111444411114444111144441111444411114444111144441111444411114444> PTRN} bind def
/Pattern6 {<1111000044440000111100004444000011110000444400001111000044440000> PTRN} bind def
/Pattern7 {<1010000000000000010100000000000010100000000000000101000000000000> PTRN} bind def
/Pattern8 {<0000000000000000000000000000000000000000000000000000000000000000> PTRN} bind def
/Pattern9 {<1e1e0f0f8787c3c3e1e1f0f078783c3c1e1e0f0f8787c3c3e1e1f0f078783c3c> PTRN} bind def
/Pattern10 {<7878f0f0e1e1c3c387870f0f1e1e3c3c7878f0f0e1e1c3c387870f0f1e1e3c3c> PTRN} bind def
/Pattern11 {<3333333333333333333333333333333333333333333333333333333333333333> PTRN} bind def
/Pattern12 {<ffffffff00000000ffffffff00000000ffffffff00000000ffffffff00000000> PTRN} bind def
/Pattern13 {<8181424224241818181824244242818181814242242418181818242442428181> PTRN} bind def
/Pattern14 {<8080404020201010080804040202010180804040202010100808040402020101> PTRN} bind def
/Pattern15 {<0101020204040808101020204040808001010202040408081010202040408080> PTRN} bind def
/Pattern16 {<2222222222222222222222222222222222222222222222222222222222222222> PTRN} bind def
/Pattern17 {<0000ffff000000000000ffff000000000000ffff000000000000ffff00000000> PTRN} bind def
/Pattern18 {<2222ffff222222222222ffff222222222222ffff222222222222ffff22222222> PTRN} bind def
/Pattern19 {<ffffffff33333333ffffffff33333333ffffffff33333333ffffffff33333333> PTRN} bind def
/Pattern20 {<0f0f0f0f0f0f0f0ff0f0f0f0f0f0f0f00f0f0f0f0f0f0f0ff0f0f0f0f0f0f0f0> PTRN} bind def
/Pattern21 {<ff00ff00ff00ff00ff00ff00ff00ff0000ff00ff00ff00ff00ff00ff00ff00ff> PTRN} bind def
/Pattern22 {<8001800180018001800180018001ffffffff8001800180018001800180018001> PTRN} bind def
/Pattern23 {<c003c003c003c003c003c003ffffffffffffffffc003c003c003c003c003c003> PTRN} bind def
/Pattern24 {<040404040404ffff404040404040ffff040404040404ffff404040404040ffff> PTRN} bind def
/Pattern25 {<180018001800180018001800ffffffff001800180018001800180018ffffffff> PTRN} bind def
/Pattern26 {<1111b8b87c7c3a3a1111a3a3c7c78b8b1111b8b87c7c3a3a1111a3a3c7c78b8b> PTRN} bind def
/Pattern27 {<101010102828c7c70101010182827c7c101010102828c7c70101010182827c7c> PTRN} bind def
/Pattern28 {<1c1c121211112121c1c12121111112121c1c121211112121c1c1212111111212> PTRN} bind def
/Pattern29 {<3e3e414180808080e3e31414080808083e3e414180808080e3e3141408080808> PTRN} bind def
/Pattern30 {<4848888884848383848488884848383848488888848483838484888848483838> PTRN} bind def
/Pattern31 {<03030404080808080c0c12122121c0c003030404080808080c0c12122121c0c0> PTRN} bind def
/ellipsedict 8 dict def
ellipsedict /mtrx matrix put
/EARC {
 ellipsedict begin
  /endangle exch def
  /startangle exch def
  /yrad exch def
  /xrad exch def
  /y exch def
  /x exch def
  /savematrix mtrx currentmatrix def
  x y translate
  xrad yrad scale
  0 0 1 startangle endangle arc
  savematrix setmatrix
 end
} def
/TL {
  /kcomp exch def
  /linewidth exch def
  /offset exch def
  GS
  0 offset rmoveto
  linewidth SLW
  dup stringwidth exch kcomp add exch RL s
  GR
} def
/KINIT
{
 /kvector exch def
 /kid 0 def
} def
/KPROC
{
 pop pop
 kvector kid get
 0 rmoveto
 /kid 1 kid add def
} def
/DefEncoding [
 /.notdef
 /.notdef
 /.notdef
 /.notdef
 /.notdef
 /.notdef
 /.notdef
 /.notdef
 /.notdef
 /.notdef
 /.notdef
 /.notdef
 /.notdef
 /.notdef
 /.notdef
 /.notdef
 /.notdef
 /.notdef
 /.notdef
 /.notdef
 /.notdef
 /.notdef
 /.notdef
 /.notdef
 /.notdef
 /.notdef
 /.notdef
 /.notdef
 /.notdef
 /.notdef
 /.notdef
 /.notdef
 /space
 /exclam
 /quotedbl
 /numbersign
 /dollar
 /percent
 /ampersand
 /quoteright
 /parenleft
 /parenright
 /asterisk
 /plus
 /comma
 /hyphen
 /period
 /slash
 /zero
 /one
 /two
 /three
 /four
 /five
 /six
 /seven
 /eight
 /nine
 /colon
 /semicolon
 /less
 /equal
 /greater
 /question
 /at
 /A
 /B
 /C
 /D
 /E
 /F
 /G
 /H
 /I
 /J
 /K
 /L
 /M
 /N
 /O
 /P
 /Q
 /R
 /S
 /T
 /U
 /V
 /W
 /X
 /Y
 /Z
 /bracketleft
 /backslash
 /bracketright
 /asciicircum
 /underscore
 /grave
 /a
 /b
 /c
 /d
 /e
 /f
 /g
 /h
 /i
 /j
 /k
 /l
 /m
 /n
 /o
 /p
 /q
 /r
 /s
 /t
 /u
 /v
 /w
 /x
 /y
 /z
 /braceleft
 /bar
 /braceright
 /asciitilde
 /.notdef
 /.notdef
 /.notdef
 /.notdef
 /.notdef
 /.notdef
 /.notdef
 /.notdef
 /.notdef
 /.notdef
 /.notdef
 /.notdef
 /.notdef
 /.notdef
 /.notdef
 /.notdef
 /.notdef
 /.notdef
 /.notdef
 /.notdef
 /.notdef
 /.notdef
 /.notdef
 /.notdef
 /.notdef
 /.notdef
 /.notdef
 /.notdef
 /.notdef
 /.notdef
 /.notdef
 /.notdef
 /.notdef
 /space
 /exclamdown
 /cent
 /sterling
 /currency
 /yen
 /brokenbar
 /section
 /dieresis
 /copyright
 /ordfeminine
 /guillemotleft
 /logicalnot
 /hyphen
 /registered
 /macron
 /degree
 /plusminus
 /twosuperior
 /threesuperior
 /acute
 /mu
 /paragraph
 /periodcentered
 /cedilla
 /onesuperior
 /ordmasculine
 /guillemotright
 /onequarter
 /onehalf
 /threequarters
 /questiondown
 /Agrave
 /Aacute
 /Acircumflex
 /Atilde
 /Adieresis
 /Aring
 /AE
 /Ccedilla
 /Egrave
 /Eacute
 /Ecircumflex
 /Edieresis
 /Igrave
 /Iacute
 /Icircumflex
 /Idieresis
 /Eth
 /Ntilde
 /Ograve
 /Oacute
 /Ocircumflex
 /Otilde
 /Odieresis
 /multiply
 /Oslash
 /Ugrave
 /Uacute
 /Ucircumflex
 /Udieresis
 /Yacute
 /Thorn
 /germandbls
 /agrave
 /aacute
 /acircumflex
 /atilde
 /adieresis
 /aring
 /ae
 /ccedilla
 /egrave
 /eacute
 /ecircumflex
 /edieresis
 /igrave
 /iacute
 /icircumflex
 /idieresis
 /eth
 /ntilde
 /ograve
 /oacute
 /ocircumflex
 /otilde
 /odieresis
 /divide
 /oslash
 /ugrave
 /uacute
 /ucircumflex
 /udieresis
 /yacute
 /thorn
 /ydieresis
] def
%%EndProlog
%%BeginSetup
%%EndSetup
612.00 612.00 scale
n
0.0000 0.0000 m
0.0000 1.0000 l
1.2941 1.0000 l
1.2941 0.0000 l
c
[/DeviceRGB] SCS
Color0 SC
fill
n
1.0497 0.2900 0.0100 0.0100 0 360 EARC c
[/DeviceRGB] SCS
Color1 SC
fill
[] 0 SD
0.0015 SLW
n 1.0497 0.2900 0.0100 0.0100 0 360 EARC s
n
0.8167 0.2900 0.0100 0.0100 0 360 EARC c
fill
n 0.8167 0.2900 0.0100 0.0100 0 360 EARC s
n
0.7163 0.2900 0.0100 0.0100 0 360 EARC c
fill
n 0.7163 0.2900 0.0100 0.0100 0 360 EARC s
n
0.6160 0.2875 0.0100 0.0100 0 360 EARC c
fill
n 0.6160 0.2875 0.0100 0.0100 0 360 EARC s
n
0.4833 0.2836 0.0100 0.0100 0 360 EARC c
fill
n 0.4833 0.2836 0.0100 0.0100 0 360 EARC s
n
0.3830 0.2725 0.0100 0.0100 0 360 EARC c
fill
n 0.3830 0.2725 0.0100 0.0100 0 360 EARC s
n
0.9085 0.2815 m
0.9085 0.2985 l
0.9255 0.2985 l
0.9255 0.2815 l
c
[/DeviceRGB] SCS
Color2 SC
fill
0 SLC
0 SLJ
n
0.9085 0.2815 m
0.9085 0.2985 l
0.9255 0.2985 l
0.9255 0.2815 l
0.9085 0.2815 l
c
s
n
0.8082 0.2815 m
0.8082 0.2985 l
0.8252 0.2985 l
0.8252 0.2815 l
c
fill
n
0.8082 0.2815 m
0.8082 0.2985 l
0.8252 0.2985 l
0.8252 0.2815 l
0.8082 0.2815 l
c
s
n
0.7078 0.2815 m
0.7078 0.2985 l
0.7248 0.2985 l
0.7248 0.2815 l
c
fill
n
0.7078 0.2815 m
0.7078 0.2985 l
0.7248 0.2985 l
0.7248 0.2815 l
0.7078 0.2815 l
c
s
n
0.5752 0.2815 m
0.5752 0.2985 l
0.5922 0.2985 l
0.5922 0.2815 l
c
fill
n
0.5752 0.2815 m
0.5752 0.2985 l
0.5922 0.2985 l
0.5922 0.2815 l
0.5752 0.2815 l
c
s
n
0.4748 0.2815 m
0.4748 0.2985 l
0.4918 0.2985 l
0.4918 0.2815 l
c
fill
n
0.4748 0.2815 m
0.4748 0.2985 l
0.4918 0.2985 l
0.4918 0.2815 l
0.4748 0.2815 l
c
s
n
0.2418 0.2815 m
0.2418 0.2985 l
0.2588 0.2985 l
0.2588 0.2815 l
c
fill
n
0.2418 0.2815 m
0.2418 0.2985 l
0.2588 0.2985 l
0.2588 0.2815 l
0.2418 0.2815 l
c
s
[/DeviceRGB] SCS
Color1 SC
[0.0075 0.0045 ] 0 SD
0.0015 SLW
n
0.3830 0.2683 m
0.4833 0.2801 l
0.6160 0.2869 l
0.7163 0.2894 l
0.8167 0.2900 l
1.0497 0.2900 l
s
[/DeviceRGB] SCS
Color2 SC
n
0.2503 0.2900 m
0.4833 0.2900 l
0.5837 0.2900 l
0.7163 0.2900 l
0.8167 0.2900 l
0.9170 0.2900 l
s
n
1.0497 0.8088 m
1.0397 0.7915 l
1.0597 0.7915 l
c
[/DeviceRGB] SCS
Color4 SC
fill
[] 0 SD
0.0015 SLW
n
1.0497 0.8088 m
1.0397 0.7915 l
1.0597 0.7915 l
1.0497 0.8088 l
c
s
n
0.8768 0.7151 m
0.8668 0.6978 l
0.8868 0.6978 l
c
fill
n
0.8768 0.7151 m
0.8668 0.6978 l
0.8868 0.6978 l
0.8768 0.7151 l
c
s
n
0.8167 0.6523 m
0.8067 0.6349 l
0.8267 0.6349 l
c
fill
n
0.8167 0.6523 m
0.8067 0.6349 l
0.8267 0.6349 l
0.8167 0.6523 l
c
s
n
0.7163 0.4662 m
0.7063 0.4489 l
0.7263 0.4489 l
c
fill
n
0.7163 0.4662 m
0.7063 0.4489 l
0.7263 0.4489 l
0.7163 0.4662 l
c
s
n
0.6160 0.3522 m
0.6060 0.3349 l
0.6260 0.3349 l
c
fill
n
0.6160 0.3522 m
0.6060 0.3349 l
0.6260 0.3349 l
0.6160 0.3522 l
c
s
n
0.4833 0.3015 m
0.4733 0.2842 l
0.4933 0.2842 l
c
fill
n
0.4833 0.3015 m
0.4733 0.2842 l
0.4933 0.2842 l
0.4833 0.3015 l
c
s
n
0.3830 0.2880 m
0.3730 0.2707 l
0.3930 0.2707 l
c
fill
n
0.3830 0.2880 m
0.3730 0.2707 l
0.3930 0.2707 l
0.3830 0.2880 l
c
s
n
0.2826 0.2705 m
0.2726 0.2532 l
0.2926 0.2532 l
c
fill
n
0.2826 0.2705 m
0.2726 0.2532 l
0.2926 0.2532 l
0.2826 0.2705 l
c
s
n
1.0397 0.6711 m
1.0497 0.6538 l
1.0597 0.6711 l
c
[/DeviceRGB] SCS
Color15 SC
fill
n
1.0397 0.6711 m
1.0497 0.6538 l
1.0597 0.6711 l
1.0397 0.6711 l
c
s
n
0.9070 0.6519 m
0.9170 0.6346 l
0.9270 0.6519 l
c
fill
n
0.9070 0.6519 m
0.9170 0.6346 l
0.9270 0.6519 l
0.9070 0.6519 l
c
s
n
0.8583 0.6362 m
0.8683 0.6188 l
0.8783 0.6362 l
c
fill
n
0.8583 0.6362 m
0.8683 0.6188 l
0.8783 0.6362 l
0.8583 0.6362 l
c
s
n
0.8067 0.6115 m
0.8167 0.5942 l
0.8267 0.6115 l
c
fill
n
0.8067 0.6115 m
0.8167 0.5942 l
0.8267 0.6115 l
0.8067 0.6115 l
c
s
n
0.5737 0.3280 m
0.5837 0.3107 l
0.5937 0.3280 l
c
fill
n
0.5737 0.3280 m
0.5837 0.3107 l
0.5937 0.3280 l
0.5737 0.3280 l
c
s
n
0.4733 0.2958 m
0.4833 0.2785 l
0.4933 0.2958 l
c
fill
n
0.4733 0.2958 m
0.4833 0.2785 l
0.4933 0.2958 l
0.4733 0.2958 l
c
s
n
0.2403 0.2958 m
0.2503 0.2785 l
0.2603 0.2958 l
c
fill
n
0.2403 0.2958 m
0.2503 0.2785 l
0.2603 0.2958 l
0.2403 0.2958 l
c
s
[/DeviceRGB] SCS
Color4 SC
[0.0075 0.0045 ] 0 SD
0.0015 SLW
n
0.3830 0.2683 m
0.4833 0.2794 l
0.6160 0.3223 l
0.7163 0.4623 l
0.8167 0.6326 l
s
[/DeviceRGB] SCS
Color15 SC
n
0.2503 0.2900 m
0.4833 0.2900 l
0.5837 0.2900 l
0.7163 0.4623 l
0.8167 0.5986 l
s
[/DeviceRGB] SCS
Color1 SC
[] 0 SD
0.0015 SLW
n
0.1500 0.1500 m
1.1500 0.1500 l
s
n
0.1500 0.8500 m
1.1500 0.8500 l
s
n
0.2503 0.1500 m
0.2503 0.1600 l
s
n
0.2503 0.8500 m
0.2503 0.8400 l
s
n
0.3090 0.1500 m
0.3090 0.1600 l
s
n
0.3090 0.8500 m
0.3090 0.8400 l
s
n
0.3507 0.1500 m
0.3507 0.1600 l
s
n
0.3507 0.8500 m
0.3507 0.8400 l
s
n
0.3830 0.1500 m
0.3830 0.1600 l
s
n
0.3830 0.8500 m
0.3830 0.8400 l
s
n
0.4094 0.1500 m
0.4094 0.1600 l
s
n
0.4094 0.8500 m
0.4094 0.8400 l
s
n
0.4317 0.1500 m
0.4317 0.1600 l
s
n
0.4317 0.8500 m
0.4317 0.8400 l
s
n
0.4510 0.1500 m
0.4510 0.1600 l
s
n
0.4510 0.8500 m
0.4510 0.8400 l
s
n
0.4681 0.1500 m
0.4681 0.1600 l
s
n
0.4681 0.8500 m
0.4681 0.8400 l
s
n
0.4833 0.1500 m
0.4833 0.1600 l
s
n
0.4833 0.8500 m
0.4833 0.8400 l
s
n
0.5837 0.1500 m
0.5837 0.1600 l
s
n
0.5837 0.8500 m
0.5837 0.8400 l
s
n
0.6424 0.1500 m
0.6424 0.1600 l
s
n
0.6424 0.8500 m
0.6424 0.8400 l
s
n
0.6840 0.1500 m
0.6840 0.1600 l
s
n
0.6840 0.8500 m
0.6840 0.8400 l
s
n
0.7163 0.1500 m
0.7163 0.1600 l
s
n
0.7163 0.8500 m
0.7163 0.8400 l
s
n
0.7427 0.1500 m
0.7427 0.1600 l
s
n
0.7427 0.8500 m
0.7427 0.8400 l
s
n
0.7650 0.1500 m
0.7650 0.1600 l
s
n
0.7650 0.8500 m
0.7650 0.8400 l
s
n
0.7844 0.1500 m
0.7844 0.1600 l
s
n
0.7844 0.8500 m
0.7844 0.8400 l
s
n
0.8014 0.1500 m
0.8014 0.1600 l
s
n
0.8014 0.8500 m
0.8014 0.8400 l
s
n
0.8167 0.1500 m
0.8167 0.1600 l
s
n
0.8167 0.8500 m
0.8167 0.8400 l
s
n
0.9170 0.1500 m
0.9170 0.1600 l
s
n
0.9170 0.8500 m
0.9170 0.8400 l
s
n
0.9757 0.1500 m
0.9757 0.1600 l
s
n
0.9757 0.8500 m
0.9757 0.8400 l
s
n
1.0174 0.1500 m
1.0174 0.1600 l
s
n
1.0174 0.8500 m
1.0174 0.8400 l
s
n
1.0497 0.1500 m
1.0497 0.1600 l
s
n
1.0497 0.8500 m
1.0497 0.8400 l
s
n
1.0761 0.1500 m
1.0761 0.1600 l
s
n
1.0761 0.8500 m
1.0761 0.8400 l
s
n
1.0984 0.1500 m
1.0984 0.1600 l
s
n
1.0984 0.8500 m
1.0984 0.8400 l
s
n
1.1177 0.1500 m
1.1177 0.1600 l
s
n
1.1177 0.8500 m
1.1177 0.8400 l
s
n
1.1347 0.1500 m
1.1347 0.1600 l
s
n
1.1347 0.8500 m
1.1347 0.8400 l
s
n
1.1500 0.1500 m
1.1500 0.1600 l
s
n
1.1500 0.8500 m
1.1500 0.8400 l
s
n
0.1500 0.1500 m
0.1500 0.1700 l
s
n
0.1500 0.8500 m
0.1500 0.8300 l
s
n
0.4833 0.1500 m
0.4833 0.1700 l
s
n
0.4833 0.8500 m
0.4833 0.8300 l
s
n
0.8167 0.1500 m
0.8167 0.1700 l
s
n
0.8167 0.8500 m
0.8167 0.8300 l
s
n
1.1500 0.1500 m
1.1500 0.1700 l
s
n
1.1500 0.8500 m
1.1500 0.8300 l
s
/Times-Roman findfont
dup length dict begin
 {1 index /FID ne {def} {pop pop} ifelse} forall
 /Encoding DefEncoding def
 currentdict
end
/Font41 exch definefont pop
/Font41 FFSF
0.1300 0.1165 m
GS
[0.0350 0.0000 0.0000 0.0350 0 0] CC
(0,1) show
GR
/Font41 FFSF
0.4765 0.1165 m
GS
[0.0350 0.0000 0.0000 0.0350 0 0] CC
(1) show
GR
/Font41 FFSF
0.7996 0.1165 m
GS
[0.0350 0.0000 0.0000 0.0350 0 0] CC
(10) show
GR
/Font41 FFSF
1.1243 0.1165 m
GS
[0.0350 0.0000 0.0000 0.0350 0 0] CC
(100) show
GR
/Font41 FFSF
0.5959 0.0562 m
GS
[0.0420 0.0000 0.0000 0.0420 0 0] CC
(\() show
GR
/Symbol findfont
/Font37 exch definefont pop
/Font37 FFSF
0.6100 0.0562 m
GS
[0.0420 0.0000 0.0000 0.0420 0 0] CC
(x z\)) show
GR
/Font37 FFSF
0.6759 0.0814 m
GS
[0.0297 0.0000 0.0000 0.0297 0 0] CC
(-1) show
GR
n
0.1500 0.1500 m
0.1500 0.8500 l
s
n
1.1500 0.1500 m
1.1500 0.8500 l
s
n
0.1500 0.1921 m
0.1600 0.1921 l
s
n
1.1500 0.1921 m
1.1400 0.1921 l
s
n
0.1500 0.2168 m
0.1600 0.2168 l
s
n
1.1500 0.2168 m
1.1400 0.2168 l
s
n
0.1500 0.2343 m
0.1600 0.2343 l
s
n
1.1500 0.2343 m
1.1400 0.2343 l
s
n
0.1500 0.2479 m
0.1600 0.2479 l
s
n
1.1500 0.2479 m
1.1400 0.2479 l
s
n
0.1500 0.2589 m
0.1600 0.2589 l
s
n
1.1500 0.2589 m
1.1400 0.2589 l
s
n
0.1500 0.2683 m
0.1600 0.2683 l
s
n
1.1500 0.2683 m
1.1400 0.2683 l
s
n
0.1500 0.2764 m
0.1600 0.2764 l
s
n
1.1500 0.2764 m
1.1400 0.2764 l
s
n
0.1500 0.2836 m
0.1600 0.2836 l
s
n
1.1500 0.2836 m
1.1400 0.2836 l
s
n
0.1500 0.2900 m
0.1600 0.2900 l
s
n
1.1500 0.2900 m
1.1400 0.2900 l
s
n
0.1500 0.3321 m
0.1600 0.3321 l
s
n
1.1500 0.3321 m
1.1400 0.3321 l
s
n
0.1500 0.3568 m
0.1600 0.3568 l
s
n
1.1500 0.3568 m
1.1400 0.3568 l
s
n
0.1500 0.3743 m
0.1600 0.3743 l
s
n
1.1500 0.3743 m
1.1400 0.3743 l
s
n
0.1500 0.3879 m
0.1600 0.3879 l
s
n
1.1500 0.3879 m
1.1400 0.3879 l
s
n
0.1500 0.3989 m
0.1600 0.3989 l
s
n
1.1500 0.3989 m
1.1400 0.3989 l
s
n
0.1500 0.4083 m
0.1600 0.4083 l
s
n
1.1500 0.4083 m
1.1400 0.4083 l
s
n
0.1500 0.4164 m
0.1600 0.4164 l
s
n
1.1500 0.4164 m
1.1400 0.4164 l
s
n
0.1500 0.4236 m
0.1600 0.4236 l
s
n
1.1500 0.4236 m
1.1400 0.4236 l
s
n
0.1500 0.4300 m
0.1600 0.4300 l
s
n
1.1500 0.4300 m
1.1400 0.4300 l
s
n
0.1500 0.4721 m
0.1600 0.4721 l
s
n
1.1500 0.4721 m
1.1400 0.4721 l
s
n
0.1500 0.4968 m
0.1600 0.4968 l
s
n
1.1500 0.4968 m
1.1400 0.4968 l
s
n
0.1500 0.5143 m
0.1600 0.5143 l
s
n
1.1500 0.5143 m
1.1400 0.5143 l
s
n
0.1500 0.5279 m
0.1600 0.5279 l
s
n
1.1500 0.5279 m
1.1400 0.5279 l
s
n
0.1500 0.5389 m
0.1600 0.5389 l
s
n
1.1500 0.5389 m
1.1400 0.5389 l
s
n
0.1500 0.5483 m
0.1600 0.5483 l
s
n
1.1500 0.5483 m
1.1400 0.5483 l
s
n
0.1500 0.5564 m
0.1600 0.5564 l
s
n
1.1500 0.5564 m
1.1400 0.5564 l
s
n
0.1500 0.5636 m
0.1600 0.5636 l
s
n
1.1500 0.5636 m
1.1400 0.5636 l
s
n
0.1500 0.5700 m
0.1600 0.5700 l
s
n
1.1500 0.5700 m
1.1400 0.5700 l
s
n
0.1500 0.6121 m
0.1600 0.6121 l
s
n
1.1500 0.6121 m
1.1400 0.6121 l
s
n
0.1500 0.6368 m
0.1600 0.6368 l
s
n
1.1500 0.6368 m
1.1400 0.6368 l
s
n
0.1500 0.6543 m
0.1600 0.6543 l
s
n
1.1500 0.6543 m
1.1400 0.6543 l
s
n
0.1500 0.6679 m
0.1600 0.6679 l
s
n
1.1500 0.6679 m
1.1400 0.6679 l
s
n
0.1500 0.6789 m
0.1600 0.6789 l
s
n
1.1500 0.6789 m
1.1400 0.6789 l
s
n
0.1500 0.6883 m
0.1600 0.6883 l
s
n
1.1500 0.6883 m
1.1400 0.6883 l
s
n
0.1500 0.6964 m
0.1600 0.6964 l
s
n
1.1500 0.6964 m
1.1400 0.6964 l
s
n
0.1500 0.7036 m
0.1600 0.7036 l
s
n
1.1500 0.7036 m
1.1400 0.7036 l
s
n
0.1500 0.7100 m
0.1600 0.7100 l
s
n
1.1500 0.7100 m
1.1400 0.7100 l
s
n
0.1500 0.7521 m
0.1600 0.7521 l
s
n
1.1500 0.7521 m
1.1400 0.7521 l
s
n
0.1500 0.7768 m
0.1600 0.7768 l
s
n
1.1500 0.7768 m
1.1400 0.7768 l
s
n
0.1500 0.7943 m
0.1600 0.7943 l
s
n
1.1500 0.7943 m
1.1400 0.7943 l
s
n
0.1500 0.8079 m
0.1600 0.8079 l
s
n
1.1500 0.8079 m
1.1400 0.8079 l
s
n
0.1500 0.8189 m
0.1600 0.8189 l
s
n
1.1500 0.8189 m
1.1400 0.8189 l
s
n
0.1500 0.8283 m
0.1600 0.8283 l
s
n
1.1500 0.8283 m
1.1400 0.8283 l
s
n
0.1500 0.8364 m
0.1600 0.8364 l
s
n
1.1500 0.8364 m
1.1400 0.8364 l
s
n
0.1500 0.8436 m
0.1600 0.8436 l
s
n
1.1500 0.8436 m
1.1400 0.8436 l
s
n
0.1500 0.8500 m
0.1600 0.8500 l
s
n
1.1500 0.8500 m
1.1400 0.8500 l
s
n
0.1500 0.1500 m
0.1700 0.1500 l
s
n
1.1500 0.1500 m
1.1300 0.1500 l
s
n
0.1500 0.2900 m
0.1700 0.2900 l
s
n
1.1500 0.2900 m
1.1300 0.2900 l
s
n
0.1500 0.4300 m
0.1700 0.4300 l
s
n
1.1500 0.4300 m
1.1300 0.4300 l
s
n
0.1500 0.5700 m
0.1700 0.5700 l
s
n
1.1500 0.5700 m
1.1300 0.5700 l
s
n
0.1500 0.7100 m
0.1700 0.7100 l
s
n
1.1500 0.7100 m
1.1300 0.7100 l
s
n
0.1500 0.8500 m
0.1700 0.8500 l
s
n
1.1500 0.8500 m
1.1300 0.8500 l
s
/Font41 FFSF
0.0863 0.1313 m
GS
[0.0350 0.0000 0.0000 0.0350 0 0] CC
(10) show
GR
/Font41 FFSF
0.1212 0.1523 m
GS
[0.0247 0.0000 0.0000 0.0247 0 0] CC
(-3) show
GR
/Font41 FFSF
0.0851 0.2713 m
GS
[0.0350 0.0000 0.0000 0.0350 0 0] CC
(10) show
GR
/Font41 FFSF
0.1200 0.2923 m
GS
[0.0247 0.0000 0.0000 0.0247 0 0] CC
(-2) show
GR
/Font41 FFSF
0.0871 0.4113 m
GS
[0.0350 0.0000 0.0000 0.0350 0 0] CC
(10) show
GR
/Font41 FFSF
0.1220 0.4323 m
GS
[0.0247 0.0000 0.0000 0.0247 0 0] CC
(-1) show
GR
/Font41 FFSF
0.0933 0.5513 m
GS
[0.0350 0.0000 0.0000 0.0350 0 0] CC
(10) show
GR
/Font41 FFSF
0.1282 0.5723 m
GS
[0.0247 0.0000 0.0000 0.0247 0 0] CC
(0) show
GR
/Font41 FFSF
0.0953 0.6913 m
GS
[0.0350 0.0000 0.0000 0.0350 0 0] CC
(10) show
GR
/Font41 FFSF
0.1302 0.7123 m
GS
[0.0247 0.0000 0.0000 0.0247 0 0] CC
(1) show
GR
/Font41 FFSF
0.0933 0.8313 m
GS
[0.0350 0.0000 0.0000 0.0350 0 0] CC
(10) show
GR
/Font41 FFSF
0.1282 0.8523 m
GS
[0.0247 0.0000 0.0000 0.0247 0 0] CC
(2) show
GR
/Font41 FFSF
0.0579 0.4394 m
GS
[0.0000 0.0420 -0.0420 0.0000 0 0] CC
(<F>) show
GR
/Font41 FFSF
0.0747 0.5100 m
GS
[0.0000 0.0297 -0.0297 0.0000 0 0] CC
(max) show
GR
n
0.1500 0.1500 m
0.1500 0.8500 l
1.1500 0.8500 l
1.1500 0.1500 l
0.1500 0.1500 l
c
s
n
0.2000 0.7500 m
0.2000 0.5345 l
0.6608 0.5345 l
0.6608 0.7500 l
c
[/DeviceRGB] SCS
Color0 SC
fill
[/DeviceRGB] SCS
Color1 SC
n
0.2000 0.7500 m
0.2000 0.5345 l
0.6608 0.5345 l
0.6608 0.7500 l
0.2000 0.7500 l
c
s
/Font41 FFSF
0.2700 0.7082 m
GS
[0.0420 0.0000 0.0000 0.0420 0 0] CC
(thermal noise \() show
GR
/Font37 FFSF
0.5218 0.7082 m
GS
[0.0420 0.0000 0.0000 0.0420 0 0] CC
(z = 2\)) show
GR
n
0.2300 0.7194 0.0100 0.0100 0 360 EARC c
fill
n 0.2300 0.7194 0.0100 0.0100 0 360 EARC s
/Font41 FFSF
0.2700 0.6567 m
GS
[0.0420 0.0000 0.0000 0.0420 0 0] CC
(thermal noise \() show
GR
/Font37 FFSF
0.5218 0.6567 m
GS
[0.0420 0.0000 0.0000 0.0420 0 0] CC
(x = 0.1\)) show
GR
n
0.2215 0.6595 m
0.2215 0.6765 l
0.2385 0.6765 l
0.2385 0.6595 l
c
[/DeviceRGB] SCS
Color2 SC
fill
n
0.2215 0.6595 m
0.2215 0.6765 l
0.2385 0.6765 l
0.2385 0.6595 l
0.2215 0.6595 l
c
s
/Font41 FFSF
[/DeviceRGB] SCS
Color1 SC
0.2700 0.6055 m
GS
[0.0420 0.0000 0.0000 0.0420 0 0] CC
(active noise \() show
GR
/Font37 FFSF
0.4939 0.6055 m
GS
[0.0420 0.0000 0.0000 0.0420 0 0] CC
(z = 2\)) show
GR
n
0.2300 0.6282 m
0.2200 0.6109 l
0.2400 0.6109 l
c
[/DeviceRGB] SCS
Color4 SC
fill
n
0.2300 0.6282 m
0.2200 0.6109 l
0.2400 0.6109 l
0.2300 0.6282 l
c
s
/Font41 FFSF
[/DeviceRGB] SCS
Color1 SC
0.2700 0.5539 m
GS
[0.0420 0.0000 0.0000 0.0420 0 0] CC
(active noise \() show
GR
/Font37 FFSF
0.4939 0.5539 m
GS
[0.0420 0.0000 0.0000 0.0420 0 0] CC
(x = 0.1\)) show
GR
n
0.2200 0.5711 m
0.2300 0.5537 l
0.2400 0.5711 l
c
[/DeviceRGB] SCS
Color15 SC
fill
n
0.2200 0.5711 m
0.2300 0.5537 l
0.2400 0.5711 l
0.2200 0.5711 l
c
s
/Font41 FFSF
[/DeviceRGB] SCS
Color1 SC
0.1826 0.7904 m
GS
[0.0420 0.0000 0.0000 0.0420 0 0] CC
(C) show
GR
%%Trailer
%%BoundingBox: 17 27 721 533
%%DocumentNeededResources: font Symbol
%%+ font Times-Roman
%%EOF
