%!PS-Adobe-3.0 EPSF-3.0 
%%BoundingBox: 0 0 864 612
%%Pages: 0
%%Creator: LibreOffice 3.5
%%Title: none
%%CreationDate: none
%%LanguageLevel: 2
%%EndComments
%%BeginProlog
%%BeginResource: procset SDRes-Prolog 1.0 0
/b4_inc_state save def
/dict_count countdictstack def
/op_count count 1 sub def
userdict begin
0 setgray 0 setlinecap 1 setlinewidth 0 setlinejoin 10 setmiterlimit[] 0 setdash newpath
/languagelevel where {pop languagelevel 1 ne {false setstrokeadjust false setoverprint} if} if
/bdef {bind def} bind def
/c {setgray} bdef
/l {neg lineto} bdef
/rl {neg rlineto} bdef
/lc {setlinecap} bdef
/lj {setlinejoin} bdef
/lw {setlinewidth} bdef
/ml {setmiterlimit} bdef
/ld {setdash} bdef
/m {neg moveto} bdef
/ct {6 2 roll neg 6 2 roll neg 6 2 roll neg curveto} bdef
/r {rotate} bdef
/t {neg translate} bdef
/s {scale} bdef
/sw {show} bdef
/gs {gsave} bdef
/gr {grestore} bdef
/f {findfont dup length dict begin
{1 index /FID ne {def} {pop pop} ifelse} forall /Encoding ISOLatin1Encoding def
currentdict end /NFont exch definefont pop /NFont findfont} bdef
/p {closepath} bdef
/sf {scalefont setfont} bdef
/ef {eofill}bdef
/pc {closepath stroke}bdef
/ps {stroke}bdef
/pum {matrix currentmatrix}bdef
/pom {setmatrix}bdef
/bs {/aString exch def /nXOfs exch def /nWidth exch def currentpoint nXOfs 0 rmoveto pum nWidth aString stringwidth pop div 1 scale aString show pom moveto} bdef
%%EndResource
%%EndProlog
%%BeginSetup
%%EndSetup
%%Page: 1 1
%%BeginPageSetup
%%EndPageSetup
pum
0.02834 0.02834 s 
0 -21590 t
/tm matrix currentmatrix def
gs
0 0 m 30479 0 l 30479 21589 l 0 21589 l 0 0 l eoclip newpath
gs
0 0 m 30479 0 l 30479 21589 l 0 21589 l 0 0 l eoclip newpath
0 lw 1 lj 0.000 c 20320 0 m  20320 21590 l  ps
10160 0 m  10160 21590 l  ps
0.750 c 5080 3809 m  7240 3809 8890 6696 8890 10476 ct 8890 14256 7240 17144 5080 17144 ct 
2920 17144 1270 14256 1270 10476 ct 1270 6696 2920 3809 5080 3809 ct p ef
0.500 c 5080 3809 m  7240 3809 8890 6696 8890 10476 ct 8890 14256 7240 17144 5080 17144 ct 
2920 17144 1270 14256 1270 10476 ct 1270 6696 2920 3809 5080 3809 ct pc
1270 3809 m  1270 3809 l  pc
8891 17145 m  8891 17145 l  pc

26 lw 0.000 c 2921 20320 m  1609 17695 l  ps
1397 17272 m  1471 17789 l  1766 17641 l  1397 17272 l  p ef
0.750 c 15242 15493 m  13969 15493 l  13969 6222 l  16514 6222 l  16514 15493 l 
15242 15493 l  p ef
0 lw 0.500 c 15242 15493 m  13969 15493 l  13969 6222 l  16514 6222 l  16514 15493 l 
15242 15493 l  pc

0.000 c 25400 3809 m  27488 3809 29083 6696 29083 10476 ct 29083 14256 27488 17144 25400 17144 ct 
23312 17144 21717 14256 21717 10476 ct 21717 6696 23312 3809 25400 3809 ct pc
21717 3809 m  21717 3809 l  pc
29084 17145 m  29084 17145 l  pc

0.750 c 25397 15366 m  24124 15366 l  24124 6095 l  26669 6095 l  26669 15366 l 
25397 15366 l  p ef
0.500 c 25397 15366 m  24124 15366 l  24124 6095 l  26669 6095 l  26669 15366 l 
25397 15366 l  pc

26 lw 0.000 c 23622 20193 m  22310 17568 l  ps
22098 17145 m  22172 17662 l  22467 17514 l  22098 17145 l  p ef
13335 20320 m  13010 17615 l  ps
12954 17145 m  12849 17656 l  13177 17617 l  12954 17145 l  p ef
5080 3810 m  5080 2848 l  ps
5080 2540 m  5245 2870 l  4915 2870 l  5080 2540 l  p
5080 2589 m  4951 2848 l  5209 2848 l  5080 2589 l  p ef
15240 6223 m  15240 5261 l  ps
15240 4953 m  15405 5283 l  15075 5283 l  15240 4953 l  p
15240 5002 m  15111 5261 l  15369 5261 l  15240 5002 l  p ef
25273 6096 m  25273 5134 l  ps
25273 4826 m  25438 5156 l  25108 5156 l  25273 4826 l  p
25273 4875 m  25144 5134 l  25402 5134 l  25273 4875 l  p ef
22352 11303 m  22352 10506 l  ps
22352 10033 m  22187 10528 l  22517 10528 l  22352 10033 l  p ef

pum
5203 3558 t
0.101 c 180 -105 m  267 -448 l  391 -448 l  477 -105 l  553 -448 l  660 -448 l 
543 0 l  420 0 l  330 -365 l  236 0 l  113 0 l  -2 -448 l  107 -448 l 
180 -105 l  p ef
pom

pum
15363 5971 t
180 -105 m  267 -448 l  391 -448 l  477 -105 l  553 -448 l  660 -448 l 
543 0 l  420 0 l  330 -365 l  236 0 l  113 0 l  -2 -448 l  107 -448 l 
180 -105 l  p ef
pom

pum
25777 5971 t
180 -105 m  267 -448 l  391 -448 l  477 -105 l  553 -448 l  660 -448 l 
543 0 l  420 0 l  330 -365 l  236 0 l  113 0 l  -2 -448 l  107 -448 l 
180 -105 l  p ef
pom

pum
22221 11944 t
234 -94 m  346 -448 l  467 -448 l  302 0 l  163 0 l  3 -448 l  126 -448 l 
234 -94 l  p ef
pom
pum
22691 11944 t
41 -354 m  41 -415 l  453 -415 l  453 -354 l  41 -354 l  p
41 -142 m  41 -203 l  453 -203 l  453 -142 l  41 -142 l  p ef
pom
pum
23186 11944 t
417 -105 m  504 -448 l  628 -448 l  714 -105 l  790 -448 l  897 -448 l 
780 0 l  657 0 l  567 -365 l  473 0 l  350 0 l  235 -448 l  344 -448 l 
417 -105 l  p ef
pom

pum
4314 13972 t
323 0 m  242 0 l  4 -583 l  87 -583 l  248 -173 l  252 -160 256 -148 261 -136 ct 
265 -123 268 -112 272 -103 ct 276 -91 279 -80 283 -70 ct 286 -80 290 -90 294 -102 ct 
297 -111 301 -122 305 -134 ct 309 -147 313 -159 318 -173 ct 478 -583 l  561 -583 l 
323 0 l  p ef
pom
pum
4877 14328 t
37 0 m  37 -37 l  123 -37 l  123 -296 l  47 -242 l  47 -283 l  127 -338 l 
167 -338 l  167 -37 l  249 -37 l  249 0 l  37 0 l  p ef
pom

pum
3044 7880 t
520 -407 m  520 -382 516 -358 508 -336 ct 499 -315 487 -296 470 -279 ct 453 -263 432 -250 407 -241 ct 
382 -232 353 -227 320 -227 ct 148 -227 l  148 0 l  69 0 l  69 -583 l  315 -583 l 
349 -583 379 -579 405 -570 ct 431 -562 452 -550 469 -535 ct 486 -519 499 -501 507 -479 ct 
516 -458 520 -434 520 -407 ct p
441 -407 m  441 -444 430 -472 407 -491 ct 384 -510 350 -520 305 -520 ct 148 -520 l 
148 -289 l  309 -289 l  354 -289 387 -300 409 -320 ct 430 -340 441 -369 441 -407 ct 
p ef
734 8 m  689 8 656 -4 633 -28 ct 610 -52 599 -84 599 -126 ct 599 -155 605 -180 616 -199 ct 
627 -218 642 -233 660 -243 ct 678 -254 698 -262 721 -266 ct 745 -270 768 -272 792 -272 ct 
893 -272 l  893 -297 l  893 -315 891 -331 887 -344 ct 883 -357 877 -368 869 -376 ct 
861 -384 851 -390 839 -394 ct 827 -397 813 -399 797 -399 ct 782 -399 769 -398 758 -396 ct 
746 -394 736 -390 728 -385 ct 719 -380 712 -372 707 -363 ct 702 -354 698 -342 697 -328 ct 
619 -335 l  622 -353 627 -369 635 -384 ct 642 -399 653 -411 667 -422 ct 682 -433 699 -441 721 -447 ct 
742 -453 768 -456 798 -456 ct 855 -456 897 -443 925 -417 ct 954 -392 968 -354 968 -305 ct 
968 -113 l  968 -91 971 -74 977 -63 ct 982 -52 993 -46 1010 -46 ct 1014 -46 1018 -46 1022 -47 ct 
1026 -48 1030 -48 1034 -49 ct 1034 -3 l  1025 0 1015 1 1006 2 ct 997 3 987 4 977 4 ct 
963 4 950 2 940 -2 ct 930 -5 922 -11 916 -19 ct 909 -26 905 -36 901 -47 ct 898 -58 896 -71 895 -86 ct 
893 -86 l  885 -72 876 -59 866 -47 ct 857 -35 846 -26 833 -17 ct 820 -9 806 -3 790 1 ct 
774 6 755 8 734 8 ct p
751 -48 m  775 -48 796 -52 813 -61 ct 831 -69 846 -80 858 -94 ct 869 -107 878 -122 884 -138 ct 
890 -154 893 -169 893 -183 ct 893 -220 l  811 -220 l  793 -220 776 -219 759 -216 ct 
743 -214 728 -209 716 -203 ct 704 -196 694 -186 686 -173 ct 679 -161 676 -145 676 -124 ct 
676 -100 682 -81 695 -68 ct 708 -55 727 -48 751 -48 ct p ef
1092 0 m  1092 -343 l  1092 -353 1092 -362 1092 -372 ct 1091 -382 1091 -391 1091 -401 ct 
1091 -410 1090 -418 1090 -426 ct 1090 -434 1090 -441 1089 -448 ct 1160 -448 l 
1160 -441 1160 -434 1161 -426 ct 1161 -418 1161 -410 1162 -401 ct 1162 -392 1163 -384 1163 -376 ct 
1163 -368 1163 -362 1163 -356 ct 1165 -356 l  1170 -373 1175 -388 1181 -401 ct 
1187 -413 1194 -424 1202 -432 ct 1210 -440 1220 -446 1231 -450 ct 1242 -454 1255 -456 1271 -456 ct 
1277 -456 1283 -456 1288 -455 ct 1294 -454 1298 -453 1301 -452 ct 1301 -384 l 
1296 -385 1290 -386 1284 -387 ct 1277 -387 1270 -388 1261 -388 ct 1244 -388 1230 -384 1218 -376 ct 
1206 -368 1196 -358 1188 -344 ct 1181 -330 1175 -314 1172 -295 ct 1168 -276 1166 -256 1166 -233 ct 
1166 0 l  1092 0 l  p ef
1546 -3 m  1535 0 1523 2 1512 4 ct 1500 6 1486 7 1471 7 ct 1411 7 1382 -27 1382 -94 ct 
1382 -393 l  1330 -393 l  1330 -447 l  1384 -447 l  1406 -548 l  1456 -548 l 
1456 -447 l  1539 -447 l  1539 -393 l  1456 -393 l  1456 -110 l  1456 -89 1459 -74 1467 -65 ct 
1474 -57 1486 -52 1503 -52 ct 1510 -52 1517 -53 1524 -54 ct 1531 -55 1538 -56 1546 -58 ct 
1546 -3 l  p ef
1611 -543 m  1611 -614 l  1685 -614 l  1685 -543 l  1611 -543 l  p
1611 0 m  1611 -448 l  1685 -448 l  1685 0 l  1611 0 l  p ef
1854 -226 m  1854 -201 1856 -177 1859 -155 ct 1863 -134 1869 -115 1878 -100 ct 
1887 -84 1899 -72 1913 -64 ct 1928 -55 1945 -51 1967 -51 ct 1993 -51 2015 -58 2033 -72 ct 
2051 -86 2062 -107 2066 -136 ct 2141 -136 l  2139 -117 2133 -99 2125 -82 ct 
2117 -64 2106 -49 2091 -36 ct 2077 -23 2060 -12 2039 -4 ct 2019 4 1995 8 1969 8 ct 
1934 8 1904 2 1879 -10 ct 1855 -22 1835 -38 1820 -59 ct 1804 -80 1793 -104 1786 -133 ct 
1779 -161 1776 -191 1776 -225 ct 1776 -255 1778 -281 1783 -304 ct 1788 -327 1795 -347 1804 -365 ct 
1813 -382 1824 -396 1836 -408 ct 1848 -420 1861 -429 1875 -436 ct 1890 -443 1905 -448 1920 -452 ct 
1936 -455 1952 -456 1968 -456 ct 1993 -456 2015 -453 2035 -446 ct 2054 -439 2071 -430 2086 -418 ct 
2100 -406 2111 -392 2120 -375 ct 2129 -359 2135 -341 2139 -323 ct 2062 -317 l 
2058 -342 2049 -361 2033 -376 ct 2017 -391 1995 -398 1966 -398 ct 1945 -398 1927 -394 1913 -387 ct 
1898 -380 1887 -370 1878 -356 ct 1869 -341 1863 -323 1859 -302 ct 1856 -280 1854 -255 1854 -226 ct 
p ef
2220 0 m  2220 -614 l  2295 -614 l  2295 0 l  2220 0 l  p ef
2464 -208 m  2464 -185 2467 -163 2471 -143 ct 2476 -124 2484 -107 2494 -93 ct 
2504 -78 2517 -67 2532 -60 ct 2548 -52 2567 -48 2589 -48 ct 2621 -48 2647 -54 2667 -67 ct 
2686 -80 2699 -97 2706 -116 ct 2771 -98 l  2767 -85 2760 -73 2752 -60 ct 2743 -48 2732 -37 2718 -27 ct 
2704 -16 2686 -8 2665 -2 ct 2644 5 2619 8 2589 8 ct 2523 8 2472 -12 2438 -51 ct 
2403 -91 2386 -149 2386 -227 ct 2386 -269 2391 -304 2402 -333 ct 2412 -363 2427 -386 2445 -404 ct 
2463 -423 2484 -436 2508 -444 ct 2533 -452 2559 -456 2586 -456 ct 2624 -456 2655 -450 2680 -438 ct 
2705 -426 2726 -409 2741 -388 ct 2756 -366 2767 -341 2774 -312 ct 2780 -283 2783 -252 2783 -218 ct 
2783 -208 l  2464 -208 l  p
2707 -265 m  2702 -312 2690 -347 2671 -368 ct 2651 -390 2622 -401 2585 -401 ct 
2573 -401 2559 -399 2546 -395 ct 2532 -391 2520 -384 2508 -374 ct 2496 -363 2487 -350 2479 -332 ct 
2471 -314 2466 -292 2465 -265 ct 2707 -265 l  p ef
3121 0 m  3121 -63 l  3269 -63 l  3269 -512 l  3137 -418 l  3137 -488 l 
3275 -583 l  3344 -583 l  3344 -63 l  3486 -63 l  3486 0 l  3121 0 l  p ef
pom

pum
14527 7460 t
520 -407 m  520 -382 516 -358 508 -336 ct 499 -315 487 -296 470 -279 ct 453 -263 432 -250 407 -241 ct 
382 -232 353 -227 320 -227 ct 148 -227 l  148 0 l  69 0 l  69 -583 l  315 -583 l 
349 -583 379 -579 405 -570 ct 431 -562 452 -550 469 -535 ct 486 -519 499 -501 507 -479 ct 
516 -458 520 -434 520 -407 ct p
441 -407 m  441 -444 430 -472 407 -491 ct 384 -510 350 -520 305 -520 ct 148 -520 l 
148 -289 l  309 -289 l  354 -289 387 -300 409 -320 ct 430 -340 441 -369 441 -407 ct 
p ef
734 8 m  689 8 656 -4 633 -28 ct 610 -52 599 -84 599 -126 ct 599 -155 605 -180 616 -199 ct 
627 -218 642 -233 660 -243 ct 678 -254 698 -262 721 -266 ct 745 -270 768 -272 792 -272 ct 
893 -272 l  893 -297 l  893 -315 891 -331 887 -344 ct 883 -357 877 -368 869 -376 ct 
861 -384 851 -390 839 -394 ct 827 -397 813 -399 797 -399 ct 782 -399 769 -398 758 -396 ct 
746 -394 736 -390 728 -385 ct 719 -380 712 -372 707 -363 ct 702 -354 698 -342 697 -328 ct 
619 -335 l  622 -353 627 -369 635 -384 ct 642 -399 653 -411 667 -422 ct 682 -433 699 -441 721 -447 ct 
742 -453 768 -456 798 -456 ct 855 -456 897 -443 925 -417 ct 954 -392 968 -354 968 -305 ct 
968 -113 l  968 -91 971 -74 977 -63 ct 982 -52 993 -46 1010 -46 ct 1014 -46 1018 -46 1022 -47 ct 
1026 -48 1030 -48 1034 -49 ct 1034 -3 l  1025 0 1015 1 1006 2 ct 997 3 987 4 977 4 ct 
963 4 950 2 940 -2 ct 930 -5 922 -11 916 -19 ct 909 -26 905 -36 901 -47 ct 898 -58 896 -71 895 -86 ct 
893 -86 l  885 -72 876 -59 866 -47 ct 857 -35 846 -26 833 -17 ct 820 -9 806 -3 790 1 ct 
774 6 755 8 734 8 ct p
751 -48 m  775 -48 796 -52 813 -61 ct 831 -69 846 -80 858 -94 ct 869 -107 878 -122 884 -138 ct 
890 -154 893 -169 893 -183 ct 893 -220 l  811 -220 l  793 -220 776 -219 759 -216 ct 
743 -214 728 -209 716 -203 ct 704 -196 694 -186 686 -173 ct 679 -161 676 -145 676 -124 ct 
676 -100 682 -81 695 -68 ct 708 -55 727 -48 751 -48 ct p ef
1092 0 m  1092 -343 l  1092 -353 1092 -362 1092 -372 ct 1091 -382 1091 -391 1091 -401 ct 
1091 -410 1090 -418 1090 -426 ct 1090 -434 1090 -441 1089 -448 ct 1160 -448 l 
1160 -441 1160 -434 1161 -426 ct 1161 -418 1161 -410 1162 -401 ct 1162 -392 1163 -384 1163 -376 ct 
1163 -368 1163 -362 1163 -356 ct 1165 -356 l  1170 -373 1175 -388 1181 -401 ct 
1187 -413 1194 -424 1202 -432 ct 1210 -440 1220 -446 1231 -450 ct 1242 -454 1255 -456 1271 -456 ct 
1277 -456 1283 -456 1288 -455 ct 1294 -454 1298 -453 1301 -452 ct 1301 -384 l 
1296 -385 1290 -386 1284 -387 ct 1277 -387 1270 -388 1261 -388 ct 1244 -388 1230 -384 1218 -376 ct 
1206 -368 1196 -358 1188 -344 ct 1181 -330 1175 -314 1172 -295 ct 1168 -276 1166 -256 1166 -233 ct 
1166 0 l  1092 0 l  p ef
1546 -3 m  1535 0 1523 2 1512 4 ct 1500 6 1486 7 1471 7 ct 1411 7 1382 -27 1382 -94 ct 
1382 -393 l  1330 -393 l  1330 -447 l  1384 -447 l  1406 -548 l  1456 -548 l 
1456 -447 l  1539 -447 l  1539 -393 l  1456 -393 l  1456 -110 l  1456 -89 1459 -74 1467 -65 ct 
1474 -57 1486 -52 1503 -52 ct 1510 -52 1517 -53 1524 -54 ct 1531 -55 1538 -56 1546 -58 ct 
1546 -3 l  p ef
pom
pum
14671 8404 t
57 -543 m  57 -614 l  131 -614 l  131 -543 l  57 -543 l  p
57 0 m  57 -448 l  131 -448 l  131 0 l  57 0 l  p ef
300 -226 m  300 -201 302 -177 305 -155 ct 309 -134 315 -115 324 -100 ct 333 -84 345 -72 359 -64 ct 
374 -55 391 -51 413 -51 ct 439 -51 461 -58 479 -72 ct 497 -86 508 -107 512 -136 ct 
587 -136 l  585 -117 579 -99 571 -82 ct 563 -64 552 -49 537 -36 ct 523 -23 506 -12 485 -4 ct 
465 4 441 8 415 8 ct 380 8 350 2 325 -10 ct 301 -22 281 -38 266 -59 ct 250 -80 239 -104 232 -133 ct 
225 -161 222 -191 222 -225 ct 222 -255 224 -281 229 -304 ct 234 -327 241 -347 250 -365 ct 
259 -382 270 -396 282 -408 ct 294 -420 307 -429 321 -436 ct 336 -443 351 -448 366 -452 ct 
382 -455 398 -456 414 -456 ct 439 -456 461 -453 481 -446 ct 500 -439 517 -430 532 -418 ct 
546 -406 557 -392 566 -375 ct 575 -359 581 -341 585 -323 ct 508 -317 l  504 -342 495 -361 479 -376 ct 
463 -391 441 -398 412 -398 ct 391 -398 373 -394 359 -387 ct 344 -380 333 -370 324 -356 ct 
315 -341 309 -323 305 -302 ct 302 -280 300 -255 300 -226 ct p ef
667 0 m  667 -614 l  742 -614 l  742 0 l  667 0 l  p ef
910 -208 m  910 -185 913 -163 917 -143 ct 922 -124 930 -107 940 -93 ct 950 -78 963 -67 978 -60 ct 
994 -52 1013 -48 1035 -48 ct 1067 -48 1093 -54 1113 -67 ct 1132 -80 1145 -97 1152 -116 ct 
1217 -98 l  1213 -85 1206 -73 1198 -60 ct 1189 -48 1178 -37 1164 -27 ct 1150 -16 1132 -8 1111 -2 ct 
1090 5 1065 8 1035 8 ct 969 8 918 -12 884 -51 ct 849 -91 832 -149 832 -227 ct 832 -269 837 -304 848 -333 ct 
858 -363 873 -386 891 -404 ct 909 -423 930 -436 954 -444 ct 979 -452 1005 -456 1032 -456 ct 
1070 -456 1101 -450 1126 -438 ct 1151 -426 1172 -409 1187 -388 ct 1202 -366 1213 -341 1220 -312 ct 
1226 -283 1229 -252 1229 -218 ct 1229 -208 l  910 -208 l  p
1153 -265 m  1148 -312 1136 -347 1117 -368 ct 1097 -390 1068 -401 1031 -401 ct 
1019 -401 1005 -399 992 -395 ct 978 -391 966 -384 954 -374 ct 942 -363 933 -350 925 -332 ct 
917 -314 912 -292 911 -265 ct 1153 -265 l  p ef
pom
pum
15069 9348 t
43 0 m  43 -53 l  57 -85 74 -113 94 -138 ct 114 -163 136 -185 158 -205 ct 180 -225 202 -244 224 -261 ct 
246 -278 266 -295 284 -312 ct 301 -329 316 -347 327 -366 ct 337 -385 343 -406 343 -430 ct 
343 -446 340 -461 335 -473 ct 330 -486 323 -497 314 -505 ct 305 -514 293 -520 280 -524 ct 
267 -529 253 -531 237 -531 ct 222 -531 208 -529 195 -525 ct 181 -520 170 -514 160 -506 ct 
149 -498 141 -487 135 -475 ct 128 -463 124 -449 122 -432 ct 46 -439 l  48 -460 54 -480 63 -498 ct 
72 -517 85 -533 101 -547 ct 117 -561 136 -572 159 -580 ct 181 -588 207 -592 237 -592 ct 
266 -592 291 -589 314 -582 ct 337 -575 356 -565 371 -551 ct 387 -537 399 -521 407 -501 ct 
415 -481 419 -458 419 -432 ct 419 -413 416 -394 409 -376 ct 402 -359 392 -342 381 -326 ct 
369 -310 355 -294 340 -279 ct 325 -265 308 -250 292 -236 ct 275 -222 258 -207 241 -194 ct 
224 -180 208 -166 193 -151 ct 178 -137 164 -123 152 -109 ct 140 -94 131 -79 124 -63 ct 
428 -63 l  428 0 l  43 0 l  p ef
pom

pum
23364 18802 t
234 -94 m  346 -448 l  467 -448 l  302 0 l  163 0 l  3 -448 l  126 -448 l 
234 -94 l  p ef
pom
pum
23834 18802 t
41 -354 m  41 -415 l  453 -415 l  453 -354 l  41 -354 l  p
41 -142 m  41 -203 l  453 -203 l  453 -142 l  41 -142 l  p ef
pom
pum
24329 18802 t
406 -448 m  406 -197 l  406 -179 407 -164 410 -149 ct 413 -135 417 -122 424 -112 ct 
430 -101 438 -93 448 -88 ct 458 -82 471 -79 485 -79 ct 499 -79 512 -82 523 -88 ct 
535 -94 545 -103 553 -115 ct 561 -126 568 -140 572 -156 ct 577 -172 579 -189 579 -208 ct 
579 -448 l  695 -448 l  695 -100 l  695 -91 695 -81 695 -71 ct 696 -60 696 -51 696 -41 ct 
697 -32 697 -24 698 -17 ct 698 -9 698 -4 699 0 ct 588 0 l  587 -4 587 -9 586 -16 ct 
586 -24 585 -32 585 -40 ct 584 -49 584 -58 583 -67 ct 583 -76 583 -83 583 -89 ct 
581 -89 l  565 -55 546 -31 522 -15 ct 498 0 470 8 437 8 ct 410 8 387 4 369 -5 ct 
350 -14 335 -26 323 -41 ct 311 -57 303 -75 297 -96 ct 292 -117 290 -139 290 -164 ct 
290 -448 l  406 -448 l  p ef
pom
pum
25083 19158 t
37 0 m  37 -37 l  123 -37 l  123 -296 l  47 -242 l  47 -283 l  127 -338 l 
167 -338 l  167 -37 l  249 -37 l  249 0 l  37 0 l  p ef
pom

pum
2386 18798 t
169 -448 m  169 -197 l  169 -179 170 -164 173 -149 ct 176 -135 180 -122 187 -112 ct 
193 -101 201 -93 211 -88 ct 221 -82 234 -79 248 -79 ct 262 -79 275 -82 286 -88 ct 
298 -94 308 -103 316 -115 ct 324 -126 331 -140 335 -156 ct 340 -172 342 -189 342 -208 ct 
342 -448 l  458 -448 l  458 -100 l  458 -91 458 -81 458 -71 ct 459 -60 459 -51 459 -41 ct 
460 -32 460 -24 461 -17 ct 461 -9 461 -4 462 0 ct 351 0 l  350 -4 350 -9 349 -16 ct 
349 -24 348 -32 348 -40 ct 347 -49 347 -58 346 -67 ct 346 -76 346 -83 346 -89 ct 
344 -89 l  328 -55 309 -31 285 -15 ct 261 0 233 8 200 8 ct 173 8 150 4 132 -5 ct 
113 -14 98 -26 86 -41 ct 74 -57 66 -75 60 -96 ct 55 -117 53 -139 53 -164 ct 53 -448 l 
169 -448 l  p ef
pom
pum
2902 19154 t
31 0 m  31 -50 l  115 -50 l  115 -280 l  34 -230 l  34 -283 l  118 -338 l 
182 -338 l  182 -50 l  259 -50 l  259 0 l  31 0 l  p ef
pom

pum
13458 18925 t
169 -448 m  169 -197 l  169 -179 170 -164 173 -149 ct 176 -135 180 -122 187 -112 ct 
193 -101 201 -93 211 -88 ct 221 -82 234 -79 248 -79 ct 262 -79 275 -82 286 -88 ct 
298 -94 308 -103 316 -115 ct 324 -126 331 -140 335 -156 ct 340 -172 342 -189 342 -208 ct 
342 -448 l  458 -448 l  458 -100 l  458 -91 458 -81 458 -71 ct 459 -60 459 -51 459 -41 ct 
460 -32 460 -24 461 -17 ct 461 -9 461 -4 462 0 ct 351 0 l  350 -4 350 -9 349 -16 ct 
349 -24 348 -32 348 -40 ct 347 -49 347 -58 346 -67 ct 346 -76 346 -83 346 -89 ct 
344 -89 l  328 -55 309 -31 285 -15 ct 261 0 233 8 200 8 ct 173 8 150 4 132 -5 ct 
113 -14 98 -26 86 -41 ct 74 -57 66 -75 60 -96 ct 55 -117 53 -139 53 -164 ct 53 -448 l 
169 -448 l  p ef
pom
pum
13974 19281 t
17 0 m  17 -47 l  25 -64 34 -79 45 -92 ct 56 -106 68 -118 80 -129 ct 92 -141 104 -151 116 -161 ct 
128 -170 138 -180 148 -189 ct 157 -198 165 -207 171 -216 ct 177 -225 180 -235 180 -245 ct 
180 -260 176 -271 169 -278 ct 161 -285 150 -289 135 -289 ct 121 -289 110 -285 102 -278 ct 
95 -270 90 -259 88 -244 ct 20 -244 l  22 -258 25 -271 30 -283 ct 35 -294 42 -305 51 -314 ct 
60 -323 72 -330 85 -335 ct 99 -340 116 -343 135 -343 ct 153 -343 169 -341 183 -336 ct 
197 -332 209 -326 219 -318 ct 228 -310 236 -300 241 -288 ct 246 -276 248 -263 248 -248 ct 
248 -232 245 -218 239 -205 ct 233 -192 225 -180 215 -170 ct 205 -159 194 -149 182 -139 ct 
170 -130 159 -121 148 -112 ct 137 -103 126 -94 117 -85 ct 108 -75 101 -66 97 -55 ct 
253 -55 l  253 0 l  17 0 l  p ef
pom

pum
14601 14226 t
323 0 m  242 0 l  4 -583 l  87 -583 l  248 -173 l  252 -160 256 -148 261 -136 ct 
265 -123 268 -112 272 -103 ct 276 -91 279 -80 283 -70 ct 286 -80 290 -90 294 -102 ct 
297 -111 301 -122 305 -134 ct 309 -147 313 -159 318 -173 ct 478 -583 l  561 -583 l 
323 0 l  p ef
pom
pum
15164 14582 t
25 0 m  25 -30 l  33 -49 43 -66 55 -80 ct 66 -94 79 -107 92 -119 ct 105 -130 117 -141 130 -151 ct 
143 -161 154 -171 164 -181 ct 175 -190 183 -201 189 -212 ct 196 -223 199 -235 199 -249 ct 
199 -258 197 -267 194 -274 ct 192 -281 187 -287 182 -292 ct 177 -297 170 -301 162 -303 ct 
155 -306 146 -307 137 -307 ct 129 -307 120 -306 113 -303 ct 105 -301 98 -297 93 -293 ct 
87 -288 82 -282 78 -275 ct 74 -268 72 -259 71 -250 ct 27 -254 l  28 -266 31 -278 37 -288 ct 
42 -299 49 -308 59 -316 ct 68 -325 79 -331 92 -336 ct 105 -340 120 -342 137 -342 ct 
154 -342 169 -340 182 -336 ct 195 -332 206 -327 215 -319 ct 224 -311 231 -301 236 -290 ct 
241 -278 243 -265 243 -250 ct 243 -239 241 -228 237 -218 ct 233 -207 227 -198 221 -188 ct 
214 -179 206 -170 197 -162 ct 188 -153 179 -145 169 -136 ct 159 -128 149 -120 140 -112 ct 
130 -104 120 -96 112 -88 ct 103 -80 95 -71 88 -63 ct 81 -55 76 -46 72 -37 ct 248 -37 l 
248 0 l  25 0 l  p ef
pom
gr
gs
0 0 m 30479 0 l 30479 21589 l 0 21589 l 0 0 l eoclip newpath
gr
gr
0 21590 t 
pom
count op_count sub {pop} repeat countdictstack dict_count sub {end} repeat b4_inc_state restore
%%PageTrailer
%%Trailer
%%EOF
