%!PS-Adobe-2.0 EPSF-1.2
%%Creator: MATLAB, The Mathworks, Inc.
%%Title: /home/mekiel/Francja/2001/July/France/all/main_programs/min_file17/exp.ps
%%CreationDate: 09/01/ 1  17:24:04
%%DocumentNeededFonts: Helvetica
%%DocumentProcessColors: Cyan Magenta Yellow Black
%%Pages: 1
%%BoundingBox:    68   202   543   614
%%EndComments

%%BeginProlog

% MathWorks dictionary
/MathWorks 160 dict begin

% definition operators
/bdef {bind def} bind def
/ldef {load def} bind def
/xdef {exch def} bdef
/xstore {exch store} bdef

% operator abbreviations
/c  /clip ldef
/cc /concat ldef
/cp /closepath ldef
/gr /grestore ldef
/gs /gsave ldef
/mt /moveto ldef
/np /newpath ldef
/cm /currentmatrix ldef
/sm /setmatrix ldef
/rc {rectclip} bdef
/rf {rectfill} bdef
/rm /rmoveto ldef
/rl /rlineto ldef
/s /show ldef
/sc {setcmykcolor} bdef
/sr /setrgbcolor ldef
/sg /setgray ldef
/w /setlinewidth ldef
/j /setlinejoin ldef
/cap /setlinecap ldef

% page state control
/pgsv () def
/bpage {/pgsv save def} bdef
/epage {pgsv restore} bdef
/bplot /gsave ldef
/eplot {stroke grestore} bdef

% orientation switch
/portraitMode 	0 def
/landscapeMode 	1 def

% coordinate system mappings
/dpi2point 0 def

% font control
/FontSize 0 def
/FMS {
	/FontSize xstore		%save size off stack
	findfont
	[FontSize 0 0 FontSize neg 0 0]
	makefont
	setfont
	}bdef

/reencode {
exch dup where
{pop load} {pop StandardEncoding} ifelse
exch
dup 3 1 roll
findfont dup length dict begin
  { 1 index /FID ne {def}{pop pop} ifelse } forall
  /Encoding exch def
  currentdict
end
definefont pop
} bdef

/isroman {
findfont /CharStrings get
/Agrave known
} bdef

/FMSR {
3 1 roll 1 index
dup isroman
{reencode} {pop pop} ifelse
exch FMS
} bdef

/csm {
	1 dpi2point div -1 dpi2point div scale
	neg translate
	landscapeMode eq {90 rotate} if
	} bdef

% line types: solid, dotted, dashed, dotdash
/SO { [] 0 setdash } bdef
/DO { [.5 dpi2point mul 4 dpi2point mul] 0 setdash } bdef
/DA { [6 dpi2point mul] 0 setdash } bdef
/DD { [.5 dpi2point mul 4 dpi2point mul 6 dpi2point mul 4 dpi2point mul] 0 setdash } bdef

% macros for lines and objects
/L {
	lineto
	stroke
	} bdef
/MP {
	3 1 roll moveto
	1 sub {rlineto} repeat
	} bdef
/AP {
	{rlineto} repeat
	} bdef
/PP {
	closepath eofill
	} bdef
/DP {
	closepath stroke
	} bdef
/MR {
	4 -2 roll moveto
	dup  0 exch rlineto
	exch 0 rlineto
	neg  0 exch rlineto
	closepath
	} bdef
/FR {
	MR stroke
	} bdef
/PR {
	MR fill
	} bdef
/L1i {
	{ currentfile picstr readhexstring pop } image
	} bdef

/tMatrix matrix def
/MakeOval {
	newpath
	tMatrix currentmatrix pop
	translate scale
	0 0 1 0 360 arc
	tMatrix setmatrix
	} bdef
/FO {
	MakeOval
	stroke
	} bdef
/PO {
	MakeOval
	fill
	} bdef

/PD {
	currentlinecap 1 setlinecap 3 1 roll 2 copy moveto lineto stroke setlinecap
	} bdef

/FA {
	newpath
	tMatrix currentmatrix pop
	translate scale
	0 0 1 5 -2 roll arc
	tMatrix setmatrix
	stroke
	} bdef
/PA {
	newpath
	tMatrix currentmatrix pop
	translate 0 0 moveto scale
	0 0 1 5 -2 roll arc
	closepath
	tMatrix setmatrix
	fill
	} bdef

/FAn {
	newpath
	tMatrix currentmatrix pop
	translate scale
	0 0 1 5 -2 roll arcn
	tMatrix setmatrix
	stroke
	} bdef
/PAn {
	newpath
	tMatrix currentmatrix pop
	translate 0 0 moveto scale
	0 0 1 5 -2 roll arcn
	closepath
	tMatrix setmatrix
	fill
	} bdef

/vradius 0 def
/hradius 0 def
/lry 0 def
/lrx 0 def
/uly 0 def
/ulx 0 def
/rad 0 def

/MRR {
	/vradius xdef
	/hradius xdef
	/lry xdef
	/lrx xdef
	/uly xdef
	/ulx xdef
	newpath
	tMatrix currentmatrix pop
	ulx hradius add uly vradius add translate
	hradius vradius scale
	0 0 1 180 270 arc 
	tMatrix setmatrix
	lrx hradius sub uly vradius add translate
	hradius vradius scale
	0 0 1 270 360 arc
	tMatrix setmatrix
	lrx hradius sub lry vradius sub translate
	hradius vradius scale
	0 0 1 0 90 arc
	tMatrix setmatrix
	ulx hradius add lry vradius sub translate
	hradius vradius scale
	0 0 1 90 180 arc
	tMatrix setmatrix
	closepath
	} bdef
/FRR {
	MRR stroke } bdef
/PRR {
	MRR fill } bdef

/MlrRR {
	/lry xdef
	/lrx xdef
	/uly xdef
	/ulx xdef
	/rad lry uly sub 2 div def
	newpath
	tMatrix currentmatrix pop
	ulx rad add uly rad add translate
	rad rad scale
	0 0 1 90 270 arc
	tMatrix setmatrix
	lrx rad sub lry rad sub translate
	rad rad scale
	0 0 1 270 90 arc
	tMatrix setmatrix
	closepath
	} bdef
/FlrRR {
	MlrRR stroke } bdef
/PlrRR {
	MlrRR fill } bdef

/MtbRR {
	/lry xdef
	/lrx xdef
	/uly xdef
	/ulx xdef
	/rad lrx ulx sub 2 div def
	newpath
	tMatrix currentmatrix pop
	ulx rad add uly rad add translate
	rad rad scale
	0 0 1 180 360 arc
	tMatrix setmatrix
	lrx rad sub lry rad sub translate
	rad rad scale
	0 0 1 0 180 arc
	tMatrix setmatrix
	closepath
	} bdef
/FtbRR {
	MtbRR stroke } bdef
/PtbRR {
	MtbRR fill } bdef

currentdict end def
%%EndProlog

%%BeginSetup
MathWorks begin

0 cap

end
%%EndSetup

%%Page: 1 1
%%BeginPageSetup
%%PageBoundingBox:    68   202   543   614
MathWorks begin
bpage
%%EndPageSetup

%%BeginObject: obj1
bplot

/dpi2point 12 def
portraitMode 0216 7344 csm

  603   -28  5701  4942 MR c np
94 dict begin %Colortable dictionary
/c0 { 0 0 0 sr} bdef
/c1 { 1 1 1 sr} bdef
/c2 { 1 0 0 sr} bdef
/c3 { 0 1 0 sr} bdef
/c4 { 0 0 1 sr} bdef
/c5 { 1 1 0 sr} bdef
/c6 { 1 0 1 sr} bdef
/c7 { 0 1 1 sr} bdef
c0
1 j
1 sg
   0    0 6913 5191 PR
6 w
0 4223 5355 0 0 -4223 899 4615 4 MP
PP
-5355 0 0 4223 5355 0 0 -4223 899 4615 5 MP stroke
4 w
DO
0 sg
1842 4615 mt 1842  392 L
1842  392 mt 1842  392 L
3161 4615 mt 3161  392 L
3161  392 mt 3161  392 L
4479 4615 mt 4479  392 L
4479  392 mt 4479  392 L
5798 4615 mt 5798  392 L
5798  392 mt 5798  392 L
 899 4475 mt 6254 4475 L
6254 4475 mt 6254 4475 L
 899 3948 mt 6254 3948 L
6254 3948 mt 6254 3948 L
 899 3421 mt 6254 3421 L
6254 3421 mt 6254 3421 L
 899 2893 mt 6254 2893 L
6254 2893 mt 6254 2893 L
 899 2366 mt 6254 2366 L
6254 2366 mt 6254 2366 L
 899 1839 mt 6254 1839 L
6254 1839 mt 6254 1839 L
 899 1311 mt 6254 1311 L
6254 1311 mt 6254 1311 L
 899  784 mt 6254  784 L
6254  784 mt 6254  784 L
SO
6 w
 899 4615 mt 6254 4615 L
 899  392 mt 6254  392 L
 899 4615 mt  899  392 L
6254 4615 mt 6254  392 L
 899 4615 mt 6254 4615 L
 899 4615 mt  899  392 L
1842 4615 mt 1842 4562 L
1842  392 mt 1842  445 L
3161 4615 mt 3161 4562 L
3161  392 mt 3161  445 L
4479 4615 mt 4479 4562 L
4479  392 mt 4479  445 L
5798 4615 mt 5798 4562 L
5798  392 mt 5798  445 L
 899 4475 mt  953 4475 L
6254 4475 mt 6200 4475 L
 899 3948 mt  953 3948 L
6254 3948 mt 6200 3948 L
 899 3421 mt  953 3421 L
6254 3421 mt 6200 3421 L
 899 2893 mt  953 2893 L
6254 2893 mt 6200 2893 L
 899 2366 mt  953 2366 L
6254 2366 mt 6200 2366 L
 899 1839 mt  953 1839 L
6254 1839 mt 6200 1839 L
 899 1311 mt  953 1311 L
6254 1311 mt 6200 1311 L
 899  784 mt  953  784 L
6254  784 mt 6200  784 L
 899 4615 mt 6254 4615 L
 899  392 mt 6254  392 L
 899 4615 mt  899  392 L
6254 4615 mt 6254  392 L
gs 899 392 5356 4224 MR c np
-1 26 -1 -26 -4 36 -1 0 -1 13 -4 0 0 1 1 36 
-5 -1 -4 0 0 -1 -1 25 -2 -24 0 23 -5 24 -1 -11 
-4 14 -1 -2 -1 23 -6 25 1 -1 -4 12 2 0 -3 0 
-3 1 -2 0 -3 0 -1 24 -4 24 -2 -2 -3 27 -4 -2 
0 1 -1 2 -8 0 0 -2 -3 49 -4 -1 -7 1 1 13 
-3 -1 -4 -2 12 1 -7 25 -2 -1 -4 2 -3 23 -3 0 
-8 3 3 0 -4 24 -2 -2 -4 -1 -3 3 -2 -2 -1 47 
-5 2 -15 0 1 12 -8 -1 2 13 -2 0 -1 -1 -7 15 
0 -2 -2 1 -2 -3 -8 26 0 -2 -2 2 -6 12 -6 14 
-3 10 -6 -12 7 23 -5 1 -3 0 -3 24 -8 1 -1 1 
-2 23 -6 0 -4 12 -2 0 -4 -2 -5 1 -1 13 -2 0 
-7 13 -5 1 -2 1 -2 22 -4 2 -5 -1 2 24 -8 1 
-2 1 -4 0 -3 23 4524 3899 100 MP stroke
-3 0 -4 1 -6 23 -5 1 -3 11 -3 0 -4 12 -7 -1 
-3 -1 -3 3 -5 12 -2 0 -4 24 -5 -1 -3 1 -4 12 
-2 14 -2 -1 -3 1 -5 -2 0 25 -10 0 -3 12 -1 12 
-2 1 -7 13 -2 11 -4 0 -1 1 5 10 -7 3 -12 9 
-2 14 -4 1 10 -3 -16 1 -2 12 -3 13 7 24 -12 -1 
-6 -1 0 16 -2 9 -6 1 -4 10 -5 15 1 -1 8 1 
-5 13 -2 -2 -1 13 -6 0 -4 12 2 2 -3 12 -4 8 
1 0 -1 12 -5 13 -14 1 9 -2 -15 24 9 13 -11 2 
-6 13 10 -3 -3 13 -4 -2 -2 13 -4 1 -6 13 -2 -1 
-4 1 1 23 -1 4 0 -5 0 27 -1 -2 -12 1 -3 25 
-2 0 -2 0 -1 23 0 0 -6 1 1 12 0 11 -2 12 
-5 0 0 -1 -2 12 6 14 -1 1 -1 10 -2 12 -2 15 
-1 9 -5 -1 -1 2 4793 3208 100 MP stroke
-1 23 1 0 -2 1 1 26 -2 -2 0 9 -3 4 -1 11 
2 1 0 10 -3 1 -1 0 0 23 -6 0 4 11 -3 13 
0 0 0 14 -2 10 1 11 1 1 -6 11 -1 14 2 1 
1 11 1 0 -4 12 1 -1 -2 13 1 11 -1 0 0 13 
-2 11 -1 1 1 24 2 -1 -2 0 -2 13 4 11 -1 11 
-3 1 4 13 0 -1 -2 12 2 0 -1 2 0 24 0 -2 
1 13 1 11 0 0 1 14 0 9 0 1 1 12 0 15 
2 0 -1 21 2 0 1 2 1 12 0 9 2 0 -1 14 
2 0 1 13 1 11 1 1 0 11 1 14 2 -2 -1 1 
3 23 3 1 -1 11 1 13 4 -1 -4 12 3 11 3 -1 
-2 16 5 0 2 -3 -1 -1 3 26 3 0 2 3 2 22 
-1 1 1 -1 3 21 2 3 1 13 2 9 2 -2 0 15 
1 11 3 0 1 14 4758 2439 100 MP stroke
2 -2 2 15 2 -2 3 -3 0 17 4 -3 1 23 0 2 
3 -1 3 24 3 0 1 2 1 12 2 10 3 -1 2 13 
5 12 2 -1 1 13 4 -2 0 16 2 -3 6 1 2 12 
1 0 4 12 3 15 1 -2 4 10 2 2 4 9 0 2 
6 25 -1 1 6 -3 0 2 4 13 5 9 4 1 0 15 
5 11 4 -3 0 0 2 14 4 1 2 -2 3 1 4 12 
1 12 4 -1 0 13 4 -2 5 12 -1 3 3 -1 3 21 
5 3 3 -1 5 11 1 13 7 -2 4 1 -3 14 6 11 
5 0 2 1 1 11 3 0 4 -2 3 13 5 -1 6 0 
-3 13 10 -1 -1 2 6 12 1 10 6 -1 2 0 4 12 
4 0 2 13 4 -2 6 13 1 13 3 0 4 -1 3 12 
4 -2 4 11 1 1 5 1 1 14 5 -1 3 11 4 12 
3 0 5 0 3 -1 4471 1870 100 MP stroke
2 0 3 -2 6 13 2 1 3 13 5 1 2 -4 4 3 
6 10 0 12 5 0 3 0 3 -1 5 12 1 2 5 11 
5 1 4 -2 0 12 7 1 0 9 4 5 8 -3 -1 0 
0 11 6 1 2 14 6 -1 3 0 3 1 5 10 3 0 
3 1 5 0 3 0 5 0 6 11 4 -2 3 3 3 10 
6 1 1 22 3 2 4 0 6 -2 2 2 0 -2 8 0 
3 12 3 -1 3 13 4 2 2 0 0 -2 6 11 6 2 
3 11 0 0 4 0 5 0 2 -1 3 15 7 9 1 0 
2 0 4 0 4 12 2 0 4 2 4 -2 5 1 2 0 
4 0 4 12 0 -1 8 1 3 -1 2 -1 1 14 7 0 
1 -1 2 -1 1 0 8 -1 1 14 5 0 0 0 9 0 
-1 12 4 0 4 0 7 1 1 0 3 11 5 -1 2 2 
3 -1 2 12 2 2 4132 1537 100 MP stroke
3 -2 4 1 3 -2 2 25 2 -12 3 12 2 3 3 -2 
3 -1 1 0 5 1 2 0 3 0 2 -1 3 1 5 11 
3 0 2 0 3 11 5 0 3 2 1 -2 3 1 6 12 
0 -12 4 11 5 0 2 13 4 0 2 0 7 -1 1 0 
3 1 3 -1 4 0 1 0 5 15 2 -2 2 0 2 -1 
0 -1 6 0 1 1 2 1 4 0 1 0 3 -1 4 -1 
3 13 1 0 3 2 1 -1 0 0 4 11 5 -12 4 0 
7 13 3 0 4 0 5 1 1 0 4 -1 4 -1 0 2 
7 9 1 0 3 -1 3 2 2 12 1 -1 1 2 6 -1 
0 -1 2 1 3 0 3 0 2 -1 2 13 3 -12 0 11 
4 1 2 1 5 -2 1 12 2 -1 0 -10 2 11 5 -1 
0 1 4 1 3 -1 2 -1 3 0 1 0 6 1 -1 1 
3 -1 2 0 2 1 3858 1384 100 MP stroke
3 11 2 0 4 -1 3 1 4 0 1 0 1 2 3 -1 
1 10 5 3 0 -1 3 -1 1 0 4 1 0 -1 1 1 
4 -2 4 2 3 11 1 0 0 11 3 2 0 0 4 0 
3 0 2 -1 1 -1 2 1 1 -1 1 2 8 0 0 -1 
0 4 4 1 5 -5 0 1 4 0 3 -1 4 2 2 -1 
2 1 4 0 1 -1 2 0 5 0 -2 0 2 12 3 -1 
3 1 6 1 -7 -3 3 0 -1 2 5 0 2 0 3 3 
4 -2 0 -1 2 0 1 0 -2 -1 3 1 1 -2 1 14 
1 -13 6 13 3 1 1 -1 0 1 -1 0 6 -1 2 1 
2 -3 0 1 1 1 2 0 0 -1 6 1 0 1 4 0 
3 0 -3 -1 8 2 0 -1 4 0 0 -1 2 -1 -3 11 
5 -9 8 2 -4 10 3 0 2 -2 1 1 6 2 -1 -1 
1 0 5 0 -2 -1 3654 1300 100 MP stroke
1 -1 1 0 3 1 0 -2 4 3 4 0 1 0 5 2 
0 -1 2 1 1 -1 3 0 2 1 -3 -2 0 0 1 -1 
1 11 3 2 1 2 4 0 -3 -2 1 0 1 0 1 -2 
3 1 1 2 0 -2 4 2 -6 -4 2 -1 3 6 2 -3 
3 0 2 1 -1 2 2 -4 -1 1 2 0 4 1 1 2 
0 9 3 -9 -1 -3 2 14 3 0 1 0 -2 -2 1 -1 
-3 0 5 3 4 0 -2 -2 5 3 -1 -3 1 2 3 -1 
3 0 -3 0 1 -1 2 1 4 1 1 -1 3 3 -4 -2 
1 -2 16 4 4 -1 0 1 -1 -2 0 -1 2 0 -2 0 
5 3 6 1 -1 -1 -2 -1 4 0 -1 0 2 -1 -12 1 
0 0 2 1 -3 -3 6 1 -5 1 11 1 -5 12 4 1 
2 -13 2 11 1 -13 2 14 2 -2 -2 0 4 1 2 0 
3 1 -1 -3 0 1 3527 1262 100 MP stroke
5 2 -3 -3 4 2 -2 -2 3 0 3 2 0 0 2 0 
0 -2 3 1 2 0 0 -1 2 1 -2 -3 -1 1 5 1 
1 0 1 2 2 -1 1 -1 -1 0 6 14 -1 0 0 -15 
-4 -2 4 2 0 12 3 1 3 1 -3 -14 4 14 -2 -1 
0 -3 2 3 4 2 -1 -3 2 1 -1 0 0 -2 5 2 
-4 0 -2 0 4 -1 2 2 -1 0 1 -4 3 4 0 0 
-1 -1 2 -1 0 -1 2 1 0 0 3 1 2 0 -4 -2 
2 1 11 -1 -1 0 2 1 2 2 0 -2 0 0 -1 -1 
2 0 0 0 4 3 -4 -3 2 1 -4 0 3 1 7 2 
-5 -2 1 -1 5 2 -3 -2 0 0 3 -1 -2 0 7 4 
-2 -1 0 -1 1 -1 1 -1 0 1 4 3 3 -3 -4 -3 
3 1 -1 0 4 4 -1 -2 0 3 -1 -3 -12 -1 14 0 
3 2 -2 -2 1 -2 3432 1255 100 MP stroke
6 16 -6 -14 3 0 4 1 -2 -2 2 1 2 3 0 0 
-1 -2 -3 11 2 0 1 -15 -1 16 0 -1 3 1 -4 -1 
3 1 0 -1 -1 -1 4 2 1 1 0 -2 1 -1 1 0 
1 -1 1 3 0 -1 1 0 -2 -3 4 2 -1 1 5 0 
-1 1 0 -1 2 -1 -3 0 3 2 2 -1 0 0 1 -2 
2 1 0 1 0 0 4 2 -2 -3 -2 2 2 -2 -12 -1 
14 0 -11 -1 13 2 -1 -1 -10 0 2 1 -2 -2 2 -1 
2 1 1 1 0 1 2 -2 0 0 0 0 3 0 -2 1 
3 0 1 0 -1 -2 2 0 -2 1 3 0 0 0 1 0 
3 0 -1 2 0 0 -1 -1 2 -1 1 13 0 -13 1 1 
5 1 -4 -1 2 0 -3 1 5 -1 2 2 0 -2 -2 -1 
-1 12 6 -10 -3 -1 3 -1 -1 -1 -1 12 5 3 0 0 
-4 -2 4 -11 1 11 3373 1232 100 MP stroke
-2 -11 1 14 3 0 -1 -12 3 12 -4 -2 -2 -14 6 13 
-1 0 -2 2 14 -2 -12 1 3 -12 -3 0 4 11 -1 0 
1 1 -1 1 -2 -2 2 0 3 3 0 -4 0 1 -3 0 
5 0 1 0 -1 1 2 -2 -1 2 13 0 -13 0 4 -1 
0 0 -4 2 3 -2 1 0 10 1 1 -1 2 -1 -2 1 
2 0 2 0 -2 3 0 -1 2 -4 2 -1 -1 3 -2 2 
5 -1 -1 1 2 -1 -1 -1 2 0 1 3 1 -2 -1 0 
0 -1 1 2 0 -3 -2 0 4 1 -1 0 -1 -1 -1 0 
4 1 -14 0 14 -1 1 1 1 -2 0 2 1 0 1 0 
-11 -2 3 3 -1 0 12 -2 -11 0 -1 0 15 0 -14 1 
0 0 1 -1 15 1 -12 1 15 -1 -16 0 1 0 -2 -2 
2 2 2 -2 4 3 -1 -1 -3 2 5 -2 -1 2 -3 -3 
3 1 -1 1 12 -2 3314 1233 100 MP stroke
-11 1 14 0 -12 0 -2 0 1 -1 12 2 -12 -2 13 2 
0 -2 1 2 -13 -1 2 -1 2 2 -1 -2 12 0 -9 1 
11 -2 -1 1 -1 3 -8 -3 12 1 3 -1 -3 1 1 0 
-11 0 13 0 0 0 2 -1 -12 0 -1 -2 12 3 1 0 
3 -1 -4 -1 1 0 1 2 -12 -2 14 1 -13 0 12 23 
-14 -24 14 2 0 0 1 -1 3 0 -1 2 -12 -3 14 1 
1 1 0 -1 1 1 1 3 3 -4 -4 2 -10 -1 10 -1 
2 0 2 2 -1 -1 1 0 -1 0 -2 0 -10 -2 -1 1 
15 1 -3 0 2 -2 -13 1 12 0 5 0 -14 1 14 0 
0 -1 0 -1 1 0 0 2 0 -3 1 1 -1 1 1 0 
4 0 -2 0 0 0 -1 -1 3 1 -2 -2 0 3 0 -2 
2 0 1 1 -2 -1 3 3 -1 -3 -1 2 2 -3 -2 1 
1 0 -1 0 4 1 3272 1233 100 MP stroke
0 1 0 -2 -2 0 -2 0 2 0 2 1 3 1 -2 0 
0 -1 -1 -1 4 2 -2 -2 1 0 1 2 1 -3 -2 2 
2 2 -1 1 2 -2 -2 -1 2 -1 0 1 -3 -1 3 1 
-2 -1 3 2 2 -1 -1 2 1 -1 1 -1 -1 1 -1 1 
1 -3 1 0 -1 1 3 1 -2 -2 1 -1 1 1 1 -1 
0 0 2 2 -1 0 -1 -1 4 0 0 2 0 -2 0 0 
-1 2 4 0 -3 -2 1 0 -2 0 -11 0 16 1 -4 -1 
2 1 -2 -1 3 1 1 0 -1 -1 0 2 -2 -3 2 1 
1 -1 -1 2 0 -1 1 1 2 -1 -2 1 -1 -2 1 1 
3 1 -2 -1 -3 2 4 10 1 -12 0 1 -1 -1 2 1 
0 1 0 -1 -1 0 1 -2 1 0 0 1 0 -1 -1 2 
5 -1 1 -1 -2 0 0 1 -1 -1 0 2 2 -2 2 0 
0 -1 -2 1 1 -1 3241 1236 100 MP stroke
-1 0 4 1 -2 1 1 -3 -2 2 3 0 -13 11 12 -11 
3 12 -1 -2 -11 -10 12 11 -11 3 13 -2 0 1 -1 -1 
1 2 4 -1 -1 1 1 -4 0 2 0 -2 -12 0 11 0 
-10 3 10 48 3 -1 -3 -3 1 3 2 -35 1 -3 -1 1 
1 1 -1 -1 -12 1 12 -1 0 1 0 -1 1 1 1 0 
1 35 -1 -23 1 0 1 0 -1 -1 3 13 1 0 -1 1 
-2 11 1 -1 0 1 0 0 0 -2 1 2 0 -1 -1 0 
1 1 0 -1 2 1 1 12 0 -1 1 1 0 11 -1 1 
1 0 -2 -2 1 13 2 12 -3 1 0 -1 3 -2 0 13 
-4 12 2 2 3 -3 -1 1 -1 0 1 23 -1 2 1 0 
2 -2 -1 24 1 0 -1 1 2 12 -1 -1 1 49 0 -48 
1 -1 -1 13 1 12 1 24 -2 -1 -9 1 11 0 1 -1 
-12 24 10 0 2 1 3211 973 100 MP stroke
-13 12 2 12 11 1 -10 11 -2 11 3223 926 6 MP stroke
0 -8 1 -9 0 -8 0 -8 0 -9 1 -8 1 -8 0 -9 
1 -8 1 -8 1 -9 1 -8 1 -8 1 -8 1 -9 1 -8 
2 -8 1 -8 2 -8 1 -9 2 -8 2 -8 2 -8 2 -8 
2 -8 2 -8 2 -8 2 -8 3 -8 2 -8 3 -8 2 -8 
3 -8 3 -8 3 -8 3 -8 3 -7 3 -8 3 -8 3 -8 
3 -7 4 -8 3 -7 4 -8 3 -7 4 -8 4 -7 4 -8 
4 -7 4 -8 4 -7 4 -7 4 -7 4 -7 5 -8 4 -7 
5 -7 4 -7 5 -7 4 -6 5 -7 5 -7 5 -7 5 -7 
5 -6 5 -7 5 -6 5 -7 6 -6 5 -7 6 -6 5 -6 
6 -6 5 -7 6 -6 6 -6 5 -6 6 -6 6 -6 6 -5 
6 -6 6 -6 6 -6 7 -5 6 -6 6 -5 6 -5 7 -6 
6 -5 7 -5 6 -5 7 -5 7 -5 6 -5 7 -5 7 -5 
7 -5 7 -4 7 -5 3616 3592 100 MP stroke
7 -5 7 -4 7 -4 7 -5 7 -4 8 -4 7 -4 7 -4 
7 -4 8 -4 7 -4 8 -3 7 -4 8 -4 7 -3 8 -4 
8 -3 7 -3 8 -3 8 -4 7 -3 8 -3 8 -2 8 -3 
8 -3 8 -3 8 -2 8 -3 8 -2 8 -2 8 -3 8 -2 
8 -2 8 -2 8 -2 8 -2 8 -1 8 -2 9 -2 8 -1 
8 -2 8 -1 9 -1 8 -1 8 -1 8 -2 9 0 8 -1 
8 -1 9 -1 8 0 8 -1 8 0 9 -1 8 0 8 0 
9 0 8 0 8 0 9 0 8 0 9 0 8 1 8 0 
8 1 9 1 8 0 8 1 9 1 8 1 8 1 9 1 
8 1 8 2 8 1 8 2 9 1 8 2 8 1 8 2 
8 2 8 2 8 2 8 2 9 2 8 3 8 2 7 3 
8 2 8 3 8 2 8 3 8 3 8 3 8 3 7 3 
8 3 8 3 7 4 2827 3657 100 MP stroke
8 3 8 3 7 4 8 4 7 3 8 4 7 4 7 4 
8 4 7 4 7 4 7 4 8 4 7 5 7 4 7 5 
7 4 7 5 7 5 7 4 6 5 7 5 7 5 6 5 
7 5 7 5 6 5 7 6 6 5 6 6 7 5 6 6 
6 5 6 6 6 6 6 5 6 6 6 6 6 6 6 6 
5 6 6 6 5 7 6 6 5 6 6 6 5 7 5 6 
6 7 5 6 5 7 5 7 5 6 5 7 4 7 5 7 
5 7 4 7 5 7 4 7 5 7 4 7 4 7 4 7 
5 8 4 7 4 7 3 8 4 7 4 8 4 7 3 8 
4 7 3 8 3 7 4 8 3 8 3 8 3 7 3 8 
3 8 3 8 2 8 3 8 3 7 2 8 3 8 2 8 
2 8 2 9 2 8 2 8 2 8 2 8 2 8 2 8 
1 8 2 9 1 8 2339 3033 100 MP stroke
2 8 1 8 1 9 1 8 1 8 1 8 1 9 1 8 
0 8 1 9 1 8 0 8 0 9 1 8 0 8 0 9 
0 8 0 8 0 9 0 8 -1 8 0 9 -1 8 0 8 
-1 9 0 8 -1 8 -1 8 -1 9 -1 8 -1 8 -2 9 
-1 8 -1 8 -2 8 -1 8 -2 9 -2 8 -1 8 -2 8 
-2 8 -2 8 -2 8 -3 8 -2 8 -2 8 -3 8 -2 8 
-3 8 -2 8 -3 8 -3 8 -3 8 -3 7 -3 8 -3 8 
-3 8 -4 7 -3 8 -3 7 -4 8 -4 8 -3 7 -4 7 
-4 8 -4 7 -4 8 -4 7 -4 7 -4 7 -4 7 -5 8 
-4 7 -5 7 -4 7 -5 7 -4 7 -5 6 -5 7 -5 7 
-5 7 -5 6 -5 7 -5 6 -5 7 -6 6 -5 7 -5 6 
-6 6 -5 7 -6 6 -6 6 -5 6 -6 6 -6 6 -6 6 
-6 6 -6 5 -6 6 2593 2283 100 MP stroke
-6 6 -6 5 -6 6 -7 5 -6 6 -7 5 -6 5 -7 6 
-6 5 -7 5 -6 5 -7 5 -7 5 -7 4 -7 5 -6 5 
-7 4 -7 5 -7 4 -8 5 -7 4 -7 4 -7 5 -7 4 
-8 4 -7 4 -7 4 -8 3 -7 4 -8 4 -7 3 -8 4 
-7 3 -8 4 -8 3 -7 3 -8 3 -8 3 -8 3 -8 3 
-7 3 -8 3 -8 2 -8 3 -8 2 -8 3 -8 2 -8 2 
-8 3 -8 2 -8 2 -8 2 -9 2 -8 1 -8 2 -8 2 
-8 1 -8 2 -9 1 -8 1 -8 1 -8 2 -9 1 -8 1 
-8 0 -9 1 -8 1 -8 1 -8 0 -9 0 -8 1 -8 0 
-9 0 -8 0 -8 0 -9 0 -8 0 -9 0 -8 0 -8 -1 
-8 0 -9 -1 -8 0 -8 -1 -9 -1 -8 -1 -8 -1 -9 -1 
-8 -1 -8 -1 -8 -1 -9 -2 -8 -1 -8 -2 -8 -1 -8 -2 
-8 -2 -9 -2 -8 -2 3360 2084 100 MP stroke
-8 -2 -8 -2 -8 -2 -8 -2 -8 -3 -8 -2 -8 -2 -8 -3 
-8 -3 -8 -2 -7 -3 -8 -3 -8 -3 -8 -3 -7 -3 -8 -4 
-8 -3 -7 -3 -8 -4 -8 -3 -7 -4 -8 -3 -7 -4 -7 -4 
-8 -4 -7 -4 -7 -4 -8 -4 -7 -4 -7 -4 -7 -5 -7 -4 
-7 -5 -7 -4 -7 -5 -7 -5 -7 -4 -7 -5 -7 -5 -6 -5 
-7 -5 -7 -5 -6 -5 -7 -5 -6 -6 -7 -5 -6 -5 -6 -6 
-6 -5 -7 -6 -6 -6 -6 -5 -6 -6 -6 -6 -6 -6 -5 -6 
-6 -6 -6 -6 -6 -6 -5 -6 -6 -7 -5 -6 -6 -6 -5 -7 
-5 -6 -5 -7 -6 -6 -5 -7 -5 -6 -5 -7 -5 -7 -4 -7 
-5 -7 -5 -6 -4 -7 -5 -7 -4 -7 -5 -8 -4 -7 -4 -7 
-4 -7 -5 -7 -4 -8 -4 -7 -3 -7 -4 -8 -4 -7 -4 -8 
-3 -7 -4 -8 -3 -7 -4 -8 -3 -8 -3 -7 -3 -8 -3 -8 
-3 -8 -3 -7 -3 -8 3947 2615 100 MP stroke
-3 -8 -2 -8 -3 -8 -2 -8 -3 -8 -2 -8 -3 -8 -2 -8 
-2 -8 -2 -8 -2 -8 -2 -8 -1 -9 -2 -8 -2 -8 -1 -8 
-2 -8 -1 -9 -1 -8 -2 -8 -1 -8 -1 -9 -1 -8 -1 -8 
0 -8 -1 -9 -1 -8 0 -8 -1 -9 0 -8 0 -8 -1 -9 
0 -8 0 -8 3995 2893 35 MP stroke
0 -9 0 -8 1 -8 0 -9 0 -8 1 -8 0 -9 1 -8 
1 -8 1 -9 1 -8 1 -8 1 -8 1 -9 1 -8 1 -8 
2 -8 1 -9 2 -8 1 -8 2 -8 2 -8 2 -8 2 -8 
2 -8 2 -9 2 -8 2 -8 3 -8 2 -8 3 -8 2 -7 
3 -8 3 -8 3 -8 3 -8 3 -8 3 -7 3 -8 3 -8 
3 -7 4 -8 3 -8 4 -7 3 -8 4 -7 4 -8 4 -7 
4 -7 4 -8 4 -7 4 -7 4 -7 4 -8 5 -7 4 -7 
4 -7 5 -7 5 -7 4 -7 5 -6 5 -7 5 -7 5 -7 
5 -6 5 -7 5 -7 5 -6 6 -6 5 -7 5 -6 6 -6 
5 -7 6 -6 6 -6 6 -6 5 -6 6 -6 6 -6 6 -6 
6 -5 6 -6 6 -6 6 -5 7 -6 6 -5 6 -6 7 -5 
6 -5 7 -5 6 -6 7 -5 7 -5 6 -5 7 -4 7 -5 
7 -5 7 -5 7 -4 3716 1924 100 MP stroke
7 -5 7 -4 7 -5 7 -4 7 -4 7 -4 8 -4 7 -4 
7 -4 8 -4 7 -4 8 -4 7 -3 8 -4 7 -3 8 -4 
8 -3 7 -3 8 -4 8 -3 7 -3 8 -3 8 -3 8 -2 
8 -3 8 -3 8 -2 8 -3 8 -2 8 -3 8 -2 8 -2 
8 -2 8 -2 8 -2 8 -2 8 -2 8 -1 9 -2 8 -1 
8 -2 8 -1 8 -1 9 -2 8 -1 8 -1 9 -1 8 -1 
8 0 8 -1 9 -1 8 0 8 -1 9 0 8 0 8 0 
9 0 8 -1 8 1 9 0 8 0 8 0 9 1 8 0 
8 1 9 0 8 1 8 1 9 1 8 1 8 1 8 1 
9 1 8 1 8 2 8 1 9 2 8 2 8 1 8 2 
8 2 8 2 8 2 8 2 8 2 8 3 8 2 8 2 
8 3 8 2 8 3 8 3 8 3 8 3 8 3 7 3 
8 3 8 3 7 3 2927 1990 100 MP stroke
8 4 8 3 7 4 8 3 7 4 8 4 7 4 7 4 
8 4 7 4 7 4 7 4 8 4 7 5 7 4 7 4 
7 5 7 5 7 4 6 5 7 5 7 5 7 5 6 5 
7 5 6 5 7 5 6 6 7 5 6 5 6 6 7 5 
6 6 6 6 6 5 6 6 6 6 6 6 6 6 5 6 
6 6 6 6 5 6 6 7 5 6 6 6 5 7 5 6 
6 7 5 6 5 7 5 6 5 7 5 7 4 7 5 7 
5 7 4 7 5 7 4 7 5 7 4 7 4 7 4 7 
5 7 4 8 3 7 4 7 4 8 4 7 4 8 3 7 
4 8 3 8 3 7 4 8 3 8 3 7 3 8 3 8 
3 8 3 8 2 7 3 8 3 8 2 8 3 8 2 8 
2 8 2 8 2 8 2 8 2 9 2 8 2 8 2 8 
1 8 2 8 1 9 2439 1365 100 MP stroke
2 8 1 8 1 8 1 9 1 8 1 8 1 8 1 9 
0 8 1 8 1 9 0 8 0 8 1 9 0 8 0 8 
0 9 0 8 0 8 0 9 -1 8 0 8 -1 9 0 8 
-1 8 -1 9 0 8 -1 8 -1 9 -1 8 -1 8 -2 8 
-1 9 -1 8 -2 8 -1 8 -2 8 -2 9 -1 8 -2 8 
-2 8 -2 8 -2 8 -3 8 -2 8 -2 8 -3 8 -2 8 
-3 8 -2 8 -3 8 -3 8 -3 7 -3 8 -3 8 -3 8 
-3 7 -4 8 -3 8 -3 7 -4 8 -4 7 -3 8 -4 7 
-4 8 -4 7 -4 7 -4 8 -4 7 -4 7 -4 7 -5 7 
-4 7 -5 7 -4 7 -5 7 -4 7 -5 7 -5 7 -5 7 
-5 6 -5 7 -5 7 -5 6 -5 7 -6 6 -5 7 -5 6 
-6 6 -5 6 -6 7 -6 6 -5 6 -6 6 -6 6 -6 6 
-6 6 -6 5 -6 6 2693 615 100 MP stroke
-6 6 -6 5 -7 6 -6 5 -6 6 -7 5 -6 5 -7 5 
-6 6 -7 5 -6 5 -7 5 -7 4 -7 5 -7 5 -7 5 
-6 4 -7 5 -8 4 -7 5 -7 4 -7 4 -7 4 -7 4 
-8 5 -7 3 -7 4 -8 4 -7 4 -8 4 -7 3 -8 4 
-7 3 -8 3 -8 4 -7 3 -8 3 -8 3 -8 3 -8 3 
-7 3 -8 2 -8 3 -8 3 -8 2 -8 3 -8 2 -8 2 
-8 2 -8 3 -8 2 -8 1 -9 2 -8 2 -8 2 -8 1 
-8 2 -8 1 -9 2 -8 1 -8 1 -8 1 -9 1 -8 1 
-8 1 -9 1 -8 1 -8 0 -9 1 -8 0 -8 1 -9 0 
-8 0 -8 0 -9 0 -8 0 -8 0 -9 0 -8 0 -8 -1 
-9 0 -8 -1 -8 0 -9 -1 -8 -1 -8 -1 -8 -1 -9 -1 
-8 -1 -8 -1 -8 -1 -9 -2 -8 -1 -8 -2 -8 -1 -8 -2 
-9 -2 -8 -2 -8 -2 3460 416 100 MP stroke
-8 -2 -8 -2 -8 -2 -8 -2 -8 -3 -8 -2 -8 -3 -8 -2 
-8 -3 -8 -3 -7 -3 -8 -2 -8 -3 -8 -3 -8 -4 -7 -3 
-8 -3 -8 -3 -7 -4 -8 -3 -7 -4 -8 -4 -7 -3 -8 -4 
-7 -4 -7 -4 -8 -4 -7 -4 -7 -4 -7 -5 -7 -4 -7 -4 
-7 -5 -7 -4 -7 -5 -7 -5 -7 -5 -7 -4 -7 -5 -6 -5 
-7 -5 -7 -5 -6 -5 -7 -6 -6 -5 -7 -5 -6 -6 -6 -5 
-6 -6 -7 -5 -6 -6 -6 -6 -6 -5 -6 -6 -6 -6 -6 -6 
-5 -6 -6 -6 -6 -6 -5 -7 -6 -6 -5 -6 -6 -6 -5 -7 
-5 -6 -6 -7 -5 -6 -5 -7 -5 -7 -5 -6 -5 -7 -4 -7 
-5 -7 -5 -7 -4 -7 -5 -7 -4 -7 -5 -7 -4 -7 -4 -7 
-5 -7 -4 -8 -4 -7 -4 -7 -4 -8 -3 -7 -4 -7 -4 -8 
-3 -7 -4 -8 -3 -8 -4 -7 -3 -8 -3 -8 -3 -7 -3 -8 
-3 -8 -3 -8 -3 -8 4047 948 100 MP stroke
-3 -7 -2 -8 -3 -8 -3 -8 -2 -8 -2 -8 -3 -8 -2 -8 
-2 -8 -2 -8 -2 -9 -2 -8 -1 -8 -2 -8 -2 -8 -1 -8 
-2 -9 -1 -8 -1 -8 -2 -8 -1 -9 -1 -8 -1 -8 -1 -8 
0 -9 -1 -8 -1 -8 0 -9 -1 -8 0 -8 0 -9 -1 -8 
0 -8 0 -9 4095 1226 35 MP stroke
gs 3088 2820 147 147 MR c np
3125 2893 mt 3197 2893 L
3161 2857 mt 3161 2929 L
3136 2868 mt 3186 2918 L
3186 2868 mt 3136 2918 L
gr

gs 3188 1153 147 147 MR c np
3225 1226 mt 3297 1226 L
3261 1190 mt 3261 1262 L
3236 1201 mt 3286 1251 L
3286 1201 mt 3236 1251 L
gr

-1 8 -2 8 -1 9 -1 8 -2 8 -2 9 -1 8 -2 8 
-1 8 -2 8 -2 9 -2 8 -2 8 -2 8 -2 8 -2 7 
-2 8 -2 8 -2 8 -2 8 -2 7 -2 8 -2 8 -3 7 
-2 8 -2 8 -3 7 -2 8 -3 7 -2 7 -2 8 -2 7 
-3 7 -2 8 -2 7 -3 7 -2 7 -3 7 -3 7 -3 7 
-3 7 -3 7 -3 7 -3 7 -3 7 -3 7 -3 7 -3 6 
-3 7 -3 7 -4 7 -3 6 -4 7 -4 6 -4 7 -3 7 
-4 6 -3 7 -2 6 -3 6 -3 7 -2 6 -3 7 -3 6 
-3 6 -3 7 -3 6 -4 6 -3 7 -3 6 -3 6 -3 6 
-3 7 -3 6 -2 6 -3 6 -3 7 -4 6 -4 6 -4 6 
-5 6 -5 7 -5 6 -5 6 -4 6 -4 6 -5 7 -3 6 
-4 6 -4 6 -4 6 -3 7 -4 6 -4 6 -3 6 -4 7 
-4 6 -3 6 -4 7 4518 3909 100 MP stroke
-3 6 -4 6 -3 6 -4 7 -3 6 -4 7 -3 6 -4 6 
-3 7 -4 6 -4 7 -3 6 -4 6 -4 7 -3 6 -4 7 
-4 6 -3 7 -4 7 -4 6 -4 7 -3 6 -4 7 -4 7 
-4 6 -3 7 -4 7 -3 6 -3 7 -4 7 -3 7 -3 7 
-4 6 -3 7 -4 7 -4 7 -4 7 -4 7 -3 7 -4 7 
-3 7 -3 6 -3 7 -3 7 -3 7 -2 8 -3 7 -2 7 
-3 7 -2 7 -3 7 -2 7 -3 7 -3 7 -3 8 -3 7 
-3 7 -3 7 -3 7 -3 8 -3 7 -3 7 -3 8 -3 7 
-2 7 -2 8 -2 7 -2 7 -2 8 -1 7 -2 8 -1 7 
-2 8 -2 7 -3 8 -2 7 -3 8 -4 7 -3 8 -3 7 
-2 8 -2 8 -2 7 -1 8 -1 8 -1 7 -1 8 -1 8 
-1 7 -1 8 -2 8 -1 7 -2 8 -2 8 -2 8 -1 8 
-2 7 -2 8 -2 8 4795 3208 100 MP stroke
-2 8 -2 8 -2 7 -1 8 -2 8 -1 8 -1 8 -2 8 
-1 7 0 8 -1 8 -1 8 0 8 -1 8 -1 8 0 8 
-1 8 -1 7 -1 8 -1 8 -1 8 -1 8 0 8 -1 8 
-1 8 0 8 0 8 -1 8 0 7 0 8 -1 8 0 8 
-1 8 0 8 -1 8 0 8 0 8 -1 8 0 7 0 8 
0 8 0 8 0 8 0 8 0 8 0 7 0 8 1 8 
0 8 0 8 1 8 0 8 0 7 1 8 1 8 0 8 
1 8 1 7 1 8 1 8 1 8 0 8 1 7 1 8 
1 8 1 8 1 7 1 8 1 8 1 7 1 8 1 8 
2 7 1 8 1 7 1 8 1 7 1 8 2 7 1 8 
1 7 2 8 1 7 2 8 2 7 2 8 1 7 2 7 
2 8 2 7 2 8 1 7 2 7 2 7 1 8 2 7 
2 7 2 7 2 8 4764 2443 100 MP stroke
1 7 2 7 2 7 2 7 2 7 2 7 2 7 2 8 
2 7 2 6 1 7 2 7 2 7 2 7 2 7 2 7 
3 6 2 7 2 7 2 6 3 7 2 6 2 7 3 6 
2 7 3 6 3 7 2 6 3 7 3 6 3 6 3 7 
3 6 3 6 2 7 3 6 3 6 3 6 3 6 3 6 
3 7 3 6 4 6 3 6 3 6 4 6 3 6 3 6 
3 6 3 6 3 5 3 6 3 6 3 6 3 5 3 6 
2 5 3 5 3 6 3 5 3 5 3 6 3 5 4 5 
3 5 3 5 3 5 4 5 3 6 3 5 3 5 3 5 
4 5 3 5 3 6 4 5 4 5 3 5 4 5 4 5 
3 5 4 5 3 5 3 5 4 5 3 5 3 5 4 4 
3 5 4 5 3 5 4 4 3 5 4 4 4 5 3 4 
4 5 3 4 4 4 4476 1870 100 MP stroke
3 5 4 4 3 4 4 4 3 5 4 4 3 4 4 4 
3 4 4 4 3 4 3 4 4 4 3 4 4 4 3 4 
4 4 4 4 3 4 4 4 4 4 4 3 3 4 4 4 
4 4 3 4 4 4 3 4 4 3 3 4 4 4 3 4 
4 3 3 4 4 4 3 3 4 4 3 4 4 3 4 4 
3 3 4 4 4 3 3 4 4 3 4 4 4 3 3 3 
4 4 4 3 4 4 3 3 4 3 3 4 4 3 4 3 
3 4 4 3 3 3 4 3 3 3 4 4 4 3 3 3 
3 3 4 2 3 3 3 3 4 3 3 3 3 2 3 3 
4 3 3 2 3 3 4 3 3 2 3 3 4 3 3 3 
4 2 3 3 3 3 4 2 3 3 4 3 3 2 4 3 
3 2 3 3 3 2 4 3 3 2 3 3 3 2 3 3 
4 2 3 2 3 3 4131 1541 100 MP stroke
4 2 3 2 4 2 3 2 3 2 4 3 2 2 3 2 
2 2 3 2 2 2 2 2 3 2 2 2 3 2 3 2 
3 2 3 2 4 2 3 2 3 2 4 2 3 2 3 1 
4 2 3 2 3 2 3 2 3 2 3 2 2 2 3 2 
3 1 4 2 3 2 3 2 4 2 3 2 4 1 3 2 
3 2 3 2 3 1 3 2 2 2 3 2 3 2 2 1 
3 2 3 2 3 1 3 2 3 2 3 1 2 2 2 2 
3 1 2 2 2 2 3 1 3 2 3 2 3 1 3 2 
4 1 3 2 3 1 3 2 3 1 3 2 3 1 2 2 
3 1 2 2 3 1 2 1 3 2 3 1 2 1 3 2 
2 1 3 1 2 1 2 2 3 1 2 1 2 1 3 1 
2 1 2 1 3 1 2 1 2 1 2 1 3 1 2 1 
2 1 3 1 2 1 3853 1379 100 MP stroke
2 1 3 1 2 2 3 1 2 1 3 1 2 1 3 1 
2 1 3 1 2 1 3 1 2 1 2 1 3 1 2 1 
2 1 2 1 2 1 2 1 3 1 2 1 2 1 2 0 
2 1 2 1 2 1 2 1 2 0 2 1 2 1 2 1 
3 1 2 0 2 1 2 1 2 1 2 1 2 1 2 1 
2 0 2 1 3 1 2 1 2 1 3 1 2 1 3 1 
2 1 2 0 3 1 2 1 2 1 2 1 2 0 2 1 
1 1 2 1 2 0 2 1 1 1 2 0 2 1 2 1 
1 0 2 1 2 0 1 1 2 1 2 0 1 1 2 0 
2 1 2 0 1 1 2 1 2 0 2 1 1 0 2 1 
2 0 1 1 2 0 2 1 2 1 1 0 3 1 2 0 
2 1 2 0 2 1 2 0 2 1 2 0 1 1 2 1 
2 0 1 1 2 0 3652 1303 100 MP stroke
2 1 1 0 2 1 1 0 2 1 2 0 1 1 2 0 
2 1 2 0 1 0 2 1 2 0 2 1 1 0 2 1 
1 0 2 1 1 0 1 0 2 1 1 0 1 1 1 0 
2 0 1 1 1 0 1 0 1 1 2 0 1 1 1 0 
1 0 2 1 1 0 1 0 1 1 1 0 2 0 1 1 
1 0 1 0 1 1 2 0 1 0 1 1 1 0 1 0 
1 1 1 0 1 0 2 1 1 0 1 0 1 0 1 1 
1 0 2 0 1 1 1 0 1 0 1 1 1 0 1 0 
1 0 1 1 1 0 1 0 1 1 1 0 1 0 1 0 
0 1 1 0 1 0 1 0 1 1 2 0 1 0 1 1 
1 0 1 0 1 0 2 1 1 0 1 0 1 1 2 0 
1 0 1 1 1 0 2 0 1 0 1 1 2 0 1 0 
2 1 1 0 1 0 3528 1269 100 MP stroke
2 1 1 0 2 0 1 1 1 0 2 0 1 0 1 1 
1 0 2 0 1 1 1 0 2 0 1 0 1 1 1 0 
2 0 1 0 1 1 1 0 1 0 1 0 2 1 1 0 
1 0 1 0 1 0 1 1 1 0 0 0 1 0 1 1 
1 0 1 0 1 0 1 0 1 1 1 0 1 0 1 0 
1 0 0 0 1 1 1 0 1 0 0 0 1 0 1 1 
1 0 0 0 1 0 1 0 1 0 0 1 1 0 1 0 
1 0 0 0 1 0 1 0 0 1 1 0 1 0 0 0 
1 0 0 0 1 0 1 1 0 0 1 0 0 0 1 0 
0 0 1 0 1 1 0 0 1 0 0 0 1 0 1 0 
0 0 1 0 1 1 1 0 1 0 1 0 1 0 1 0 
1 0 1 1 0 0 1 0 1 0 1 0 1 0 1 0 
0 0 1 1 1 0 3439 1250 100 MP stroke
1 0 0 0 1 0 1 0 1 0 0 1 1 0 1 0 
0 0 1 0 1 0 1 0 0 0 1 1 1 0 0 0 
1 0 1 0 0 0 1 0 0 0 1 1 0 0 1 0 
0 0 1 0 0 0 1 0 1 0 0 0 1 1 1 0 
1 0 1 0 1 0 0 0 1 0 1 0 1 0 1 1 
1 0 1 0 1 0 1 0 1 0 0 0 1 0 1 0 
1 0 1 1 0 0 1 0 1 0 1 0 0 0 1 0 
1 0 1 0 0 0 1 0 1 1 1 0 1 0 0 0 
1 0 1 0 1 0 1 0 0 0 1 0 1 0 0 1 
1 0 0 0 1 0 0 0 1 0 1 0 0 0 1 0 
0 0 1 0 0 0 1 0 0 1 1 0 0 0 1 0 
1 0 0 0 1 0 0 0 1 0 0 0 1 0 1 0 
0 0 1 1 0 0 3371 1240 100 MP stroke
1 0 0 0 1 0 1 0 0 0 1 0 0 0 1 0 
0 0 1 0 0 0 1 0 0 1 1 0 1 0 0 0 
1 0 0 0 1 0 0 0 1 0 0 0 1 0 0 0 
1 0 0 0 1 0 1 1 0 0 1 0 0 0 1 0 
0 0 1 0 0 0 1 0 0 0 1 0 0 0 1 0 
0 0 1 0 0 1 1 0 0 0 1 0 0 0 1 0 
0 0 1 0 0 0 1 0 0 0 1 0 0 0 1 0 
0 0 1 1 0 0 1 0 1 0 0 0 1 0 1 0 
0 0 1 0 0 0 1 0 1 0 0 0 1 0 0 0 
1 0 0 1 1 0 0 0 1 0 1 0 0 0 1 0 
0 0 1 0 0 0 1 0 1 0 0 0 1 0 0 0 
1 0 0 0 1 0 0 1 0 0 1 0 0 0 1 0 
0 0 1 0 0 0 3318 1234 100 MP stroke
1 0 0 0 1 0 0 0 1 0 0 0 0 0 1 0 
0 0 1 0 0 0 1 0 0 1 0 0 1 0 0 0 
1 0 0 0 1 0 0 0 0 0 1 0 0 0 1 0 
0 0 1 0 0 0 1 0 0 0 0 0 1 0 0 0 
1 0 0 0 1 0 0 1 0 0 1 0 0 0 1 0 
0 0 1 0 0 0 0 0 1 0 0 0 1 0 0 0 
0 0 1 0 0 0 0 0 1 0 0 0 1 0 0 0 
0 0 1 0 0 0 1 0 0 1 0 0 1 0 0 0 
1 0 0 0 0 0 1 0 0 0 1 0 0 0 0 0 
1 0 0 0 0 0 1 0 0 0 0 0 0 0 1 0 
0 0 1 0 0 0 0 0 1 0 0 0 0 0 1 0 
0 0 0 1 1 0 0 0 0 0 0 0 1 0 0 0 
0 0 1 0 0 0 3279 1230 100 MP stroke
0 0 0 0 1 0 0 0 0 0 1 0 0 0 0 0 
1 0 0 0 0 0 1 0 0 0 1 0 0 0 0 0 
1 0 0 0 0 0 1 0 0 0 0 0 1 0 0 0 
0 0 1 1 0 0 1 0 0 0 0 0 1 0 0 0 
1 0 0 0 1 0 0 0 0 0 1 0 0 0 1 0 
0 0 0 0 1 0 0 0 1 0 0 0 0 0 1 0 
0 0 1 0 0 0 0 0 1 0 0 0 0 0 0 0 
1 0 0 0 0 0 1 0 0 0 0 0 0 1 1 0 
0 0 0 0 0 0 1 0 0 0 0 0 0 0 1 0 
0 0 0 0 1 0 0 0 0 0 1 0 0 0 0 0 
1 0 0 0 0 0 1 1 0 0 1 0 0 0 1 0 
0 0 0 0 1 0 0 0 1 0 0 1 1 0 0 0 
0 0 1 0 0 0 3244 1226 100 MP stroke
1 1 0 0 1 0 0 0 1 0 0 1 1 0 0 0 
1 1 0 0 1 0 0 1 0 0 1 1 0 0 1 0 
0 1 1 1 0 0 0 1 1 0 0 1 1 1 0 1 
1 0 0 1 0 1 1 1 0 1 1 1 0 1 0 2 
1 1 0 1 1 2 0 1 0 2 1 1 0 2 0 2 
1 2 0 1 0 2 0 3 1 2 0 2 0 2 1 3 
0 3 0 2 1 3 0 3 0 3 0 3 1 3 0 3 
0 4 1 3 0 4 0 4 0 3 1 4 0 4 0 4 
0 5 1 4 0 4 0 5 0 4 1 5 0 5 0 5 
0 5 1 5 0 5 0 6 0 5 1 5 0 6 0 6 
1 5 0 6 0 6 0 6 1 6 0 7 0 6 0 6 
0 7 1 6 0 7 0 7 0 6 1 7 0 7 0 7 
0 7 1 7 0 7 3211 922 100 MP stroke
0 7 0 8 1 7 0 7 0 8 3210 885 6 MP stroke
gr

%%IncludeResource: font Helvetica
/Helvetica /ISOLatin1Encoding 216 FMSR

3504 4864 mt 
(X) s
 809 2571 mt  -90 rotate
(Z) s
90 rotate
1146  221 mt 
(Experiment: trajectory of the moving particle center) s
%%IncludeResource: font Symbol
/Symbol /ISOLatin1Encoding 216 FMSR

3198  835 mt 
(\257) s
%%IncludeResource: font Helvetica
/Helvetica /ISOLatin1Encoding 216 FMSR

2887  659 mt 
(gravity) s
2860 2375 mt 
(fixed) s
4469 4470 mt 
(video) s
2711 4470 mt 
(interferometry) s

end

eplot
%%EndObject

epage
end

showpage

%%Trailer
%%EOF
